1.0,0.9881586562842131,0.9747589100152254,0.9655824489891529,0.9552841782569885,0.9392888993024826,0.9185584336519241,0.8996340185403824,0.8725199699401855,0.8530057817697525
0.9999996493062042,0.9881573738530278,0.974756520241499,0.9655811674892902,0.955283410847187,0.9392885901033878,0.91855888068676,0.8996342420578003,0.8725215941667557,0.8530091494321823
0.9986938658403233,0.9926102086901665,0.9766858741641045,0.9648591801524162,0.9457358568906784,0.9212736487388611,0.8866250962018967,0.8381789177656174,0.8260127902030945,0.7685400992631912
0.9986940105445683,0.9953045356087387,0.9790993928909302,0.9690869953483343,0.9603597968816757,0.9482199512422085,0.9230809509754181,0.9039139151573181,0.8910400122404099,0.8464859127998352
0.9986939589725807,0.9803783111274242,0.9704525545239449,0.9633521698415279,0.9583874121308327,0.9512958899140358,0.9390806183218956,0.9217748790979385,0.9060818031430244,0.8849641680717468
0.9986936617642641,0.9934928291477263,0.9795726500451565,0.9658438675105572,0.9484358206391335,0.9247824624180794,0.9067893326282501,0.8764505907893181,0.8333116173744202,0.800749659538269
0.9530615881085396,0.9477055966854095,0.9353853166103363,0.9210232645273209,0.9103422984480858,0.8999689370393753,0.8781177550554276,0.860376849770546,0.8487152755260468,0.8418399691581726
0.8786755874752998,0.8792020231485367,0.8769837021827698,0.8764514625072479,0.8779413104057312,0.8720221370458603,0.8560171127319336,0.8375589102506638,0.8315639942884445,0.8268008977174759
