0.0,0.013955742440014185,0.023561844420137312,0.03324072521615573,0.04157353502510952,0.0567116405856356,0.07657867210876879,0.10502773774725072,0.12779627178896735,0.136310572101367
3.035128405826093e-06,0.013956818555075023,0.023562728983501202,0.03324160652707686,0.04157468392753183,0.056712291936681036,0.07657964328734879,0.10502868641185925,0.1277968720567063,0.13631096619998917
0.002672238219486922,0.011900115993838889,0.024135503472784037,0.034209299345638544,0.04870351187769317,0.06656579118049155,0.10838617866353395,0.17600269691335058,0.1876319600263936,0.2282032899926406
0.0026720800264182776,0.008153489981939877,0.016693194298647573,0.023932186135959266,0.03221033908365689,0.04187798318019886,0.0637444248541087,0.0975350861742571,0.11464487638056475,0.1775473184162616
0.0026727194493140205,0.009244710958146385,0.01598768434111031,0.023566224645865774,0.030573888928416948,0.039005317578815535,0.05541839104251112,0.07725611957787526,0.10052310019159061,0.12355253828830393
0.0026719379955689737,0.011680127298313692,0.0235991408524564,0.035455709722343465,0.04934792649357522,0.07823849309400188,0.11047978266319769,0.1535468166139915,0.21293051698377408,0.23727332018302982
0.025141980374182027,0.03123988280594492,0.0409642908296296,0.05365494152929917,0.06510273856741344,0.0753434874777078,0.09515347371139116,0.11525534652650615,0.13326994891721133,0.13814382827322857
0.1097613230555935,0.1038511843774268,0.09859710256143084,0.0927831749818725,0.09179682319279314,0.10204952917447363,0.11605291539159912,0.12876184315274364,0.13561240884532033,0.1394898963213581
