1.0,0.9906096272170544,0.9749631490558386,0.9646989554166794,0.9545882754027843,0.9374686181545258,0.9132236242294312,0.8880018293857574,0.8609749376773834,0.8471038490533829
0.9999963756999932,0.9906061869114637,0.9749594163149595,0.9646949991583824,0.9545862153172493,0.9374674707651138,0.9132289811968803,0.8880009278655052,0.8609742075204849,0.8470965325832367
0.9992045717081055,0.9940218534320593,0.9770404659211636,0.9644243977963924,0.9477377310395241,0.9261734783649445,0.8894695788621902,0.8303733915090561,0.8321264982223511,0.7763101607561111
0.9992038375930861,0.9960911525413394,0.9807152319699526,0.969457358121872,0.9618486016988754,0.9508980885148048,0.9248942732810974,0.8974717706441879,0.8908082395792007,0.8260102272033691
0.9992060968070291,0.9741433560848236,0.9695239160209894,0.9638342820107937,0.9534875974059105,0.9319124072790146,0.9006354808807373,0.8578197658061981,0.8309627920389175,0.8344224095344543
0.9992066705017351,0.9858251865953207,0.973933769389987,0.9666496962308884,0.9599731042981148,0.9540747441351414,0.9403469003736973,0.9206291884183884,0.8985024318099022,0.8711751699447632
0.9991945453220978,0.9945764685980976,0.9796071965247393,0.9647940509021282,0.9520386010408401,0.9325625598430634,0.9111911877989769,0.8629723489284515,0.82542285323143,0.7966392189264297
0.9598488174378872,0.952335923910141,0.939577367156744,0.9277694523334503,0.9179337322711945,0.9074481204152107,0.8882447928190231,0.8669268488883972,0.8572539836168289,0.8418884128332138
0.9159115180373192,0.9152470454573631,0.9098462462425232,0.9062053188681602,0.9030612111091614,0.8863437101244926,0.871140718460083,0.857905775308609,0.8432712405920029,0.8414310365915298
