1.0,0.990915653295815,0.977825503796339,0.9695422798395157,0.9591210559010506,0.9428881295025349,0.9193050712347031,0.8922845870256424,0.8656474649906158,0.8494795262813568
0.9999937568099995,0.9909084802493453,0.9778166692703962,0.9695351533591747,0.9591113477945328,0.9428771361708641,0.9192940667271614,0.8922704011201859,0.8656483888626099,0.8494804054498672
0.9992728394572623,0.9934759656898677,0.9792244620621204,0.9677881859242916,0.9513103701174259,0.9319914802908897,0.8920498788356781,0.8451329320669174,0.8168455362319946,0.7842378616333008
0.9992728754295968,0.9955185917206109,0.9820527490228415,0.9728947803378105,0.9649204611778259,0.9543325006961823,0.9290449619293213,0.9032925888895988,0.8829084783792496,0.8371590971946716
0.9992728463257663,0.9785346481949091,0.9735511764883995,0.9677996449172497,0.9543329104781151,0.9335610866546631,0.8979456871747971,0.8580485731363297,0.8293935060501099,0.8353301584720612
0.9992749074008316,0.9875079430639744,0.9769231453537941,0.97052969224751,0.9650775566697121,0.9579523764550686,0.9444950446486473,0.9223425537347794,0.8970220759510994,0.8701593428850174
0.9992753156693652,0.994020233862102,0.9810727722942829,0.9675506316125393,0.9531635120511055,0.9340740367770195,0.9115094095468521,0.8721639066934586,0.8265130668878555,0.8029943108558655
0.9423563443124294,0.9364852979779243,0.9266576617956161,0.9183352887630463,0.9110255166888237,0.9011427834630013,0.8811669275164604,0.8637959659099579,0.8509427756071091,0.8441270440816879
0.8820285573601723,0.8827377110719681,0.8839853405952454,0.8868939280509949,0.8873656094074249,0.8809836506843567,0.8678997755050659,0.8551923036575317,0.8477951884269714,0.8459929376840591
