1.0,0.9863634184002876,0.9648195542395115,0.9532335139811039,0.9469434320926666,0.9381309039890766,0.9255639910697937,0.9048192501068115,0.8803973346948624,0.862804651260376
0.9999935825790089,0.9863554760813713,0.9648143425583839,0.9532200433313847,0.9469343014061451,0.9381145164370537,0.9255518615245819,0.9048043340444565,0.8803985342383385,0.8628053963184357
0.999182800471317,0.9912264049053192,0.9687950015068054,0.9528533928096294,0.938057042658329,0.9226409494876862,0.9059362411499023,0.8704385459423065,0.847306877374649,0.7588336020708084
0.9991846615448594,0.9940853305160999,0.9737438894808292,0.956984031945467,0.9496004842221737,0.9403216578066349,0.9233865290880203,0.9078992605209351,0.8937423676252365,0.8409916758537292
0.9991824098979123,0.9649779982864857,0.9588909670710564,0.9524181932210922,0.942888792604208,0.9263404980301857,0.9024770110845566,0.8794334903359413,0.8502742648124695,0.8408507406711578
0.9991847949568182,0.9829182606190443,0.9635419324040413,0.953601248562336,0.9496177062392235,0.9449503794312477,0.9348259791731834,0.9190763011574745,0.8992830887436867,0.87601538002491
0.9991898306761868,0.9926608167588711,0.9739109463989735,0.954359408468008,0.9403951391577721,0.9273891225457191,0.9096677750349045,0.8789870291948318,0.8484353274106979,0.8010696470737457
0.9440470635890961,0.9338697120547295,0.9182275980710983,0.906044565141201,0.900275930762291,0.8934584707021713,0.8782018199563026,0.8646725118160248,0.8585067242383957,0.8537648022174835
0.8589843809604645,0.8626424372196198,0.8654603213071823,0.8673202693462372,0.8723251223564148,0.8761687651276588,0.8689000755548477,0.8612620532512665,0.8536256849765778,0.8522126078605652
