1.0,0.9686720632016659,0.9363353475928307,0.9195309728384018,0.9069462716579437,0.8882669135928154,0.8628712147474289,0.8366035521030426,0.8097012490034103,0.8012017011642456
0.9999999520552443,0.9686721637845039,0.9363354295492172,0.9195303022861481,0.9069462269544601,0.8882674127817154,0.8628715872764587,0.8366037309169769,0.8097014129161835,0.8012017458677292
0.9974658170249313,0.9781732745468616,0.9442261643707752,0.9245972335338593,0.9032810106873512,0.8781119212508202,0.8389334827661514,0.774979829788208,0.7672132402658463,0.7129224538803101
0.9974657262209803,0.9840707052499056,0.9472929388284683,0.9275545552372932,0.9167297184467316,0.9035037308931351,0.8740110546350479,0.846781313419342,0.830747589468956,0.7712912112474442
0.9974670340307057,0.9365775287151337,0.9277323707938194,0.9191446900367737,0.9043169021606445,0.8785205185413361,0.8459588140249252,0.7997556328773499,0.7569812834262848,0.7619310915470123
0.9974670878145844,0.9648502543568611,0.9363622069358826,0.9196695163846016,0.9135684445500374,0.9050043895840645,0.8924410715699196,0.8696802705526352,0.8443520069122314,0.8192351460456848
0.9974657145794481,0.9807647820562124,0.9478600732982159,0.9252768158912659,0.9044841974973679,0.879706859588623,0.8562837243080139,0.8078018724918365,0.7569233030080795,0.721613734960556
0.9540766812860966,0.938486136496067,0.9120947867631912,0.888325072824955,0.8713798671960831,0.8581884205341339,0.833988755941391,0.8130105286836624,0.795813113451004,0.787333220243454
0.8851080015301704,0.8820832967758179,0.8716250509023666,0.8621142357587814,0.859285369515419,0.8493561148643494,0.8333554714918137,0.811346173286438,0.8065333217382431,0.8024817109107971
