%YAML 1.1
%TAG !u! tag:unity3d.com,2011:
--- !u!21 &2100000
Material:
  serializedVersion: 6
  m_ObjectHideFlags: 0
  m_CorrespondingSourceObject: {fileID: 0}
  m_PrefabInstance: {fileID: 0}
  m_PrefabAsset: {fileID: 0}
  m_Name: fieldModel
  m_Shader: {fileID: 4800000, guid: df2986be2956222429c62448a824920d, type: 3}
  m_ShaderKeywords: 
  m_LightmapFlags: 4
  m_EnableInstancingVariants: 0
  m_DoubleSidedGI: 0
  m_CustomRenderQueue: -1
  stringTagMap: {}
  disabledShaderPasses: []
  m_SavedProperties:
    serializedVersion: 3
    m_TexEnvs:
    - _BumpMap:
        m_Texture: {fileID: 0}
        m_Scale: {x: 1, y: 1}
        m_Offset: {x: 0, y: 0}
    - _DetailAlbedoMap:
        m_Texture: {fileID: 0}
        m_Scale: {x: 1, y: 1}
        m_Offset: {x: 0, y: 0}
    - _DetailMask:
        m_Texture: {fileID: 0}
        m_Scale: {x: 1, y: 1}
        m_Offset: {x: 0, y: 0}
    - _DetailNormalMap:
        m_Texture: {fileID: 0}
        m_Scale: {x: 1, y: 1}
        m_Offset: {x: 0, y: 0}
    - _EmissionMap:
        m_Texture: {fileID: 0}
        m_Scale: {x: 1, y: 1}
        m_Offset: {x: 0, y: 0}
    - _MainTex:
        m_Texture: {fileID: 2800000, guid: 8201eb135fd419b4cbb8672e1553d76d, type: 3}
        m_Scale: {x: 1, y: 1}
        m_Offset: {x: 0, y: 0}
    - _MetallicGlossMap:
        m_Texture: {fileID: 0}
        m_Scale: {x: 1, y: 1}
        m_Offset: {x: 0, y: 0}
    - _NormalMap:
        m_Texture: {fileID: 2800000, guid: 0684185f3f41e794da4524f5048f1fcb, type: 3}
        m_Scale: {x: 1, y: 1}
        m_Offset: {x: 0, y: 0}
    - _OcclusionMap:
        m_Texture: {fileID: 0}
        m_Scale: {x: 1, y: 1}
        m_Offset: {x: 0, y: 0}
    - _ParallaxMap:
        m_Texture: {fileID: 0}
        m_Scale: {x: 1, y: 1}
        m_Offset: {x: 0, y: 0}
    - _SpecularMap:
        m_Texture: {fileID: 0}
        m_Scale: {x: 1, y: 1}
        m_Offset: {x: 0, y: 0}
    - m_BackTex:
        m_Texture: {fileID: 0}
        m_Scale: {x: 1, y: 1}
        m_Offset: {x: 0, y: 0}
    - m_BottomTex:
        m_Texture: {fileID: 0}
        m_Scale: {x: 1, y: 1}
        m_Offset: {x: 0, y: 0}
    - m_FrontTex:
        m_Texture: {fileID: 0}
        m_Scale: {x: 1, y: 1}
        m_Offset: {x: 0, y: 0}
    - m_LeftTex:
        m_Texture: {fileID: 0}
        m_Scale: {x: 1, y: 1}
        m_Offset: {x: 0, y: 0}
    - m_MainTex:
        m_Texture: {fileID: 2800000, guid: 064be2da6eaca164993be8e68d57055c, type: 3}
        m_Scale: {x: 1, y: 1}
        m_Offset: {x: 0, y: 0}
    - m_NormalMap:
        m_Texture: {fileID: 2800000, guid: 064be2da6eaca164993be8e68d57055c, type: 3}
        m_Scale: {x: 1, y: 1}
        m_Offset: {x: 0, y: 0}
    - m_RightTex:
        m_Texture: {fileID: 0}
        m_Scale: {x: 1, y: 1}
        m_Offset: {x: 0, y: 0}
    - m_TopTex:
        m_Texture: {fileID: 0}
        m_Scale: {x: 1, y: 1}
        m_Offset: {x: 0, y: 0}
    m_Floats:
    - _BumpScale: 1
    - _Cutoff: 0.5
    - _DetailNormalMapScale: 1
    - _DstBlend: 0
    - _GlossMapScale: 1
    - _Glossiness: 0.5
    - _GlossyReflections: 1
    - _Metallic: 0
    - _Mode: 0
    - _OcclusionStrength: 1
    - _Parallax: 0.02
    - _ShowTexture: 1
    - _SmoothnessTextureChannel: 0
    - _SpecularHighlights: 1
    - _SrcBlend: 1
    - _UVSec: 0
    - _ZWrite: 1
    - m_AmbientLightStrength: 1
    - m_MipLevel: 0
    - m_MipLevelAlbedo: 0
    - m_MipLevelNormal: 0
    - m_NormalFactor: 1
    - m_NormalMapFac: 1
    - m_UseMipLvlInterpolation: 1
    - m_UseNormalMapping: 1.365
    m_Colors:
    - _Color: {r: 1, g: 1, b: 1, a: 1}
    - _EmissionColor: {r: 0, g: 0, b: 0, a: 1}
    - _LightColor: {r: 1, g: 1, b: 1, a: 1}
    - _MainLightPosition: {r: -43.15, g: 0, b: 14.81, a: 0}
    - _MipMapLvl_00: {r: 1, g: 0, b: 0, a: 1}
    - _MipMapLvl_01: {r: 0, g: 1, b: 0, a: 1}
    - _MipMapLvl_02: {r: 0, g: 0, b: 1, a: 1}
    - _MipMapLvl_03: {r: 1, g: 0, b: 0.72, a: 1}
    - _MipMapLvl_04: {r: 1, g: 1, b: 0, a: 1}
    - _MipMapLvl_05: {r: 1, g: 0.64, b: 0, a: 1}
    - _MipMapLvl_06: {r: 0, g: 0.75, b: 1, a: 1}
    - _MipMapLvl_07: {r: 0.5, g: 0.5, b: 0.5, a: 1}
    - _MipMapLvl_08: {r: 0.75, g: 0, b: 0.75, a: 1}
    - _MipMapLvl_09: {r: 0.35, g: 0.45, b: 0.85, a: 1}
    - _MipMapLvl_10: {r: 0.8, g: 0.2, b: 1, a: 1}
    - _MipMapLvl_11: {r: 0, g: 0, b: 0, a: 1}
    - m_LightColor: {r: 1, g: 1, b: 1, a: 1}
    - m_LightDir: {r: -1, g: 0, b: 0, a: 1}
    - m_MainLightDirection: {r: 0, g: 0, b: 0, a: 0}
    - m_MainLightPosition: {r: 0, g: 3, b: 0, a: 0}
    - m_bounds: {r: 1, g: 1, b: 1, a: 1}
    - m_centerOffset: {r: 1, g: 1, b: 1, a: 1}
