0.02092878053885172,0.024555978480616303,0.030823504001592616,0.03920826879750283,0.04754748738930992,0.05419456400068301,0.07261314426835541,0.09261355911122626,0.11912290655373325,0.137612208092452
0.020927548767654347,0.02460422674846019,0.031162016607619414,0.03958302087614152,0.0473003623546826,0.05308567230239325,0.06676515331301303,0.08895917131013553,0.0993481072715715,0.1025080259225497
0.020927622464931184,0.02444268686233686,0.030476762592146045,0.038383264725037614,0.04579167293238806,0.05051260275956848,0.06502768505631196,0.08488797876799392,0.09741670816379988,0.10097619878281039
