0.028949159208258912,0.03562296393463227,0.04891957972351513,0.06862468247389797,0.08690210276471044,0.10346930489646,0.12739303478445618,0.15216386328045994,0.184957560024665,0.2096774807311529
0.028949171877338475,0.03583165601072036,0.049912163445133495,0.06882839966073917,0.08264857257371405,0.09350026492995356,0.11295227331948554,0.13585449712722386,0.15831063677605073,0.17268108777654378
0.028949391448963246,0.035421583940585144,0.0478801417685778,0.06591073102456768,0.08036981864305359,0.09090546966083013,0.1090834199723183,0.13101200304591754,0.15557424540091513,0.17063213921381648
