0.0,0.07729505747556686,0.18192559480667114,0.2613074779510498,0.29647666215896606,0.30637064576148987,0.32004889845848083,0.3266455829143524,0.33708497881889343,0.3649834990501404
1.0760242048490909e-06,0.05697771906852722,0.15430478751659393,0.24647557735443115,0.2930852770805359,0.3087133765220642,0.3198506236076355,0.33055371046066284,0.34094810485839844,0.3625195622444153
0.014560189098119736,0.06696708500385284,0.16767214238643646,0.2617192566394806,0.310960054397583,0.3248089551925659,0.3434212803840637,0.3717285394668579,0.506202757358551,0.6184307336807251
0.014559563249349594,0.06211201474070549,0.15530890226364136,0.2379315197467804,0.2864076793193817,0.3087175488471985,0.31915777921676636,0.32834920287132263,0.36251500248908997,0.32838159799575806
0.014560241252183914,0.23727761209011078,0.25995519757270813,0.2817349433898926,0.3032388389110565,0.31890684366226196,0.33476129174232483,0.36920619010925293,0.40028613805770874,0.48619353771209717
0.014559409581124783,0.10507600009441376,0.20047898590564728,0.2613297998905182,0.28990438580513,0.30099305510520935,0.3140621483325958,0.32307979464530945,0.33624088764190674,0.3490668833255768
0.014557466842234135,0.05696319043636322,0.14879819750785828,0.2480783611536026,0.3016836643218994,0.3253668546676636,0.33979037404060364,0.35365965962409973,0.420617938041687,0.46893733739852905
0.027034170925617218,0.05359453707933426,0.12493279576301575,0.21627379953861237,0.27305930852890015,0.3022514879703522,0.31535661220550537,0.32147112488746643,0.3237491846084595,0.33059561252593994
0.14403994381427765,0.17272703349590302,0.22269922494888306,0.26607802510261536,0.2967694103717804,0.3172164559364319,0.3277190923690796,0.340654194355011,0.3729695677757263,0.373508095741272

