0.0,0.027890335768461227,0.07292541861534119,0.11092593520879745,0.12908534705638885,0.13920120894908905,0.1454145312309265,0.1501079797744751,0.16980277001857758,0.188287153840065
5.084758640805376e-07,0.02371155470609665,0.06510333716869354,0.10667021572589874,0.1305089145898819,0.14052647352218628,0.14623473584651947,0.15038447082042694,0.16704240441322327,0.19192825257778168
0.009687528014183044,0.030211102217435837,0.06882313638925552,0.1057746633887291,0.13061408698558807,0.14205129444599152,0.14666002988815308,0.1610940843820572,0.17643530666828156,0.3192365765571594
0.009686235338449478,0.025604382157325745,0.06264996528625488,0.10053007304668427,0.1253480315208435,0.13663841784000397,0.14129848778247833,0.1496715396642685,0.15065373480319977,0.17396624386310577
0.00968787632882595,0.08810386061668396,0.10510115325450897,0.1191985011100769,0.13138101994991302,0.14089763164520264,0.1449079066514969,0.15154920518398285,0.16173197329044342,0.2013048678636551
0.009688876569271088,0.033262647688388824,0.07508336007595062,0.1100480705499649,0.1273598074913025,0.13596798479557037,0.1403922587633133,0.14665734767913818,0.15368600189685822,0.1587851494550705
0.00968853384256363,0.02268344908952713,0.057387303560972214,0.10002429783344269,0.12621767818927765,0.13702520728111267,0.1429649442434311,0.1524389088153839,0.1566094309091568,0.16652338206768036
0.0006800777628086507,0.006615310441702604,0.026643062010407448,0.06416027247905731,0.10273274034261703,0.12389029562473297,0.1320393681526184,0.1392386555671692,0.14481568336486816,0.15215212106704712
0.02180320955812931,0.03459765389561653,0.06459543108940125,0.09828382730484009,0.12374705076217651,0.13659211993217468,0.14519862830638885,0.15029826760292053,0.16792264580726624,0.1754216104745865

