0.9598535671830177,0.9523168206214905,0.9394555315375328,0.9273666366934776,0.916079968214035,0.9019793123006821,0.8738231807947159,0.8520549833774567,0.8331767320632935,0.8162649273872375
0.9598559588193893,0.9522812590003014,0.9384916350245476,0.9258012622594833,0.91518784314394,0.9026695191860199,0.8838632255792618,0.8626866489648819,0.8545870184898376,0.8424579501152039
0.9598488174378872,0.952335923910141,0.939577367156744,0.9277694523334503,0.9179337322711945,0.9074481204152107,0.8882447928190231,0.8669268488883972,0.8572539836168289,0.8418884128332138
