0.9530611485242844,0.9476327188313007,0.9353185594081879,0.9203775152564049,0.9085958898067474,0.8941038399934769,0.866374209523201,0.8458902835845947,0.8265551328659058,0.8183694779872894
0.9530621506273746,0.9475662149488926,0.9335653558373451,0.9182166382670403,0.9074417129158974,0.8948010802268982,0.8727729469537735,0.8547707945108414,0.8465966135263443,0.8427212089300156
0.9530615881085396,0.9477055966854095,0.9353853166103363,0.9210232645273209,0.9103422984480858,0.8999689370393753,0.8781177550554276,0.860376849770546,0.8487152755260468,0.8418399691581726
