# Blender MTL File: 'Bufomus.blend'
# Material Count: 4

newmtl Material.006
Ns 225.000000
Ka 1.000000 1.000000 1.000000
Kd 1.000000 1.000000 1.000000
Ks 0.500000 0.500000 0.500000
Ke 0.0 0.0 0.0
Ni 1.000000
d 1.000000
illum 2

newmtl Material.007
Ns 225.000000
Ka 1.000000 1.000000 1.000000
Kd 0.037410 0.037410 0.037410
Ks 0.500000 0.500000 0.500000
Ke 0.0 0.0 0.0
Ni 1.000000
d 1.000000
illum 2

newmtl Material.008
Ns 225.000000
Ka 1.000000 1.000000 1.000000
Kd 0.037410 0.037410 0.037410
Ks 0.500000 0.500000 0.500000
Ke 0.0 0.0 0.0
Ni 1.000000
d 1.000000
illum 2

newmtl Skin
Ns 225.000000
Ka 1.000000 1.000000 1.000000
Kd 0.800000 0.800000 0.800000
Ks 0.500000 0.500000 0.500000
Ke 0.0 0.0 0.0
Ni 1.000000
d 1.000000
illum 2
