0.0,0.009390372782945633,0.025036850944161415,0.03530104458332062,0.04541172459721565,0.06253138184547424,0.08677637577056885,0.11199817061424255,0.13902506232261658,0.15289615094661713
3.624300006777048e-06,0.009393813088536263,0.025040583685040474,0.035305000841617584,0.0454137846827507,0.06253252923488617,0.08677101880311966,0.11199907213449478,0.13902579247951508,0.1529034674167633
0.0007954282918944955,0.005978146567940712,0.02295953407883644,0.03557560220360756,0.05226226896047592,0.07382652163505554,0.11053042113780975,0.1696266084909439,0.16787350177764893,0.22368983924388885
0.0007961624069139361,0.003908847458660603,0.019284768030047417,0.030542641878128052,0.03815139830112457,0.04910191148519516,0.07510572671890259,0.10252822935581207,0.10919176042079926,0.17398977279663086
0.0007933294982649386,0.014174813404679298,0.026066230610013008,0.03335030376911163,0.04002689570188522,0.04592525586485863,0.05965309962630272,0.07937081158161163,0.10149756819009781,0.12882483005523682
0.0008054546779021621,0.005423531401902437,0.020392803475260735,0.03520594909787178,0.04796139895915985,0.06743744015693665,0.0888088122010231,0.13702765107154846,0.17457714676856995,0.20336078107357025
0.04015118256211281,0.04766407608985901,0.060422632843256,0.07223054766654968,0.08206626772880554,0.09255187958478928,0.11175520718097687,0.13307315111160278,0.14274601638317108,0.1581115871667862
0.08408848196268082,0.08475295454263687,0.0901537537574768,0.09379468113183975,0.09693878889083862,0.11365628987550735,0.128859281539917,0.142094224691391,0.15672875940799713,0.15856896340847015
