1.0,0.9227049425244331,0.8180744051933289,0.7386925220489502,0.7035233378410339,0.6936293542385101,0.6799511015415192,0.6733544170856476,0.6629150211811066,0.6350165009498596
0.9999989239757952,0.9430222809314728,0.8456952124834061,0.7535244226455688,0.7069147229194641,0.6912866234779358,0.6801493763923645,0.6694462895393372,0.6590518951416016,0.6374804377555847
0.9854398109018803,0.9330329149961472,0.8323278576135635,0.7382807433605194,0.689039945602417,0.6751910448074341,0.6565787196159363,0.6282714605331421,0.493797242641449,0.3815692663192749
0.9854404367506504,0.9378879852592945,0.8446910977363586,0.7620684802532196,0.7135923206806183,0.6912824511528015,0.6808422207832336,0.6716507971286774,0.63748499751091,0.6716184020042419
0.9854397587478161,0.7627223879098892,0.7400448024272919,0.7182650566101074,0.6967611610889435,0.681093156337738,0.6652387082576752,0.6307938098907471,0.5997138619422913,0.5138064622879028
0.9854405904188752,0.8949239999055862,0.7995210140943527,0.7386702001094818,0.71009561419487,0.6990069448947906,0.6859378516674042,0.6769202053546906,0.6637591123580933,0.6509331166744232
0.9854425331577659,0.9430368095636368,0.8512018024921417,0.7519216388463974,0.6983163356781006,0.6746331453323364,0.6602096259593964,0.6463403403759003,0.579382061958313,0.531062662601471
0.9729658290743828,0.9464054629206657,0.8750672042369843,0.7837262004613876,0.7269406914710999,0.6977485120296478,0.6846433877944946,0.6785288751125336,0.6762508153915405,0.6694043874740601
0.8559600561857224,0.827272966504097,0.7773007750511169,0.7339219748973846,0.7032305896282196,0.6827835440635681,0.6722809076309204,0.659345805644989,0.6270304322242737,0.626491904258728
