1.0,0.9537395536899567,0.8854181319475174,0.8285372257232666,0.7998684793710709,0.78898885846138,0.7853499948978424,0.782234862446785,0.775629535317421,0.7441926300525665
0.9999991541438362,0.9633728824555874,0.9016364812850952,0.8401528596878052,0.8063817620277405,0.7907174676656723,0.7852676510810852,0.7822788506746292,0.772229477763176,0.7445358037948608
0.9883082564920187,0.9559329822659492,0.8939231038093567,0.8327561020851135,0.7988196313381195,0.7865713834762573,0.7774916589260101,0.7670281678438187,0.6822946667671204,0.5984232723712921
0.9883087771013379,0.9613032341003418,0.904461607336998,0.8472607433795929,0.8098306655883789,0.7908025532960892,0.7855004817247391,0.7849479913711548,0.7711963206529617,0.77760049700737
0.9883084092289209,0.8578791469335556,0.8355871587991714,0.8172814697027206,0.7996153235435486,0.7857311964035034,0.7800477743148804,0.766388326883316,0.7501097172498703,0.6892274022102356
0.9883092939853668,0.9442098438739777,0.8789564073085785,0.8275062441825867,0.801686629652977,0.7910744249820709,0.7855387628078461,0.7824450582265854,0.7768101245164871,0.7719962149858475
0.9883112944662571,0.9650634825229645,0.9088514372706413,0.8427492529153824,0.8066550046205521,0.7852754145860672,0.7755182087421417,0.7732904553413391,0.7461190223693848,0.7190459668636322
0.9890045002102852,0.9760210458189249,0.9402209036052227,0.8857199847698212,0.8357331901788712,0.8069208264350891,0.7944087088108063,0.7879265248775482,0.7843706011772156,0.7753806710243225
0.9385879226028919,0.9168289601802826,0.8784737884998322,0.8399128168821335,0.8106392920017242,0.7942559719085693,0.7869756072759628,0.7822078913450241,0.75739786028862,0.7523530125617981
