0.0,0.007163732850081317,0.013024340465327633,0.018786309499025378,0.022682440160859296,0.02590169799107256,0.03031301384146534,0.03664259834033157,0.05180628089073691,0.0656145106659759
1.5654659738517651e-06,0.007963403593418406,0.013907382890958497,0.019911514516644857,0.02491652605038641,0.02859324088355386,0.031324758254428375,0.037544512664519636,0.058514927457026134,0.07637560861480275
0.0037496329806501194,0.009407052344342914,0.01733273471773078,0.023020732457004534,0.026327353596951597,0.029517005414943065,0.03392452340879071,0.05510693047963666,0.1028750863632194,0.428248672001046
0.003750098160102966,0.007086445731416702,0.012608312313773351,0.018512839949393012,0.022783674776197915,0.0257976532492602,0.02767768916900115,0.03944806620695518,0.03883243772878364,0.06746747713056533
0.0037502089857097687,0.02007622101622164,0.02122216899794116,0.022218976498538212,0.02549327317590544,0.028778440937728078,0.032122797603327036,0.041727724879319195,0.0579673689493404,0.16630557974638016
0.0037513584193931138,0.006924055680345043,0.01239685424355963,0.01793832975610632,0.021666689580897458,0.024390568764501075,0.027125248368030985,0.0332294446788679,0.04113101307037237,0.05033982553435168
0.003751413459846198,0.00690651589018465,0.013071762155136835,0.019733058626011934,0.024697168119279134,0.027473433505365463,0.03754143731649584,0.09756567531511473,0.15434830681895872,0.15298496933727168
0.0003368106094794321,0.0014807896699057244,0.005265863654547176,0.011424423970374353,0.0173113628836834,0.021504561274521827,0.02447318811918675,0.028211770132249403,0.031017066647195946,0.03448284231552645
0.010291538928406951,0.009922400678408771,0.013622756610774167,0.01861559964214443,0.02273745619756562,0.026374286812666514,0.030532637459278367,0.03659484502266197,0.04813909628688939,0.05565376823601931
