1.0,0.9637210108339787,0.9120707362890244,0.873477578163147,0.855037733912468,0.8465065062046051,0.8450469374656677,0.8421674519777298,0.8317205607891083,0.7886819541454315
0.99999988976721,0.9682817310094833,0.9200878143310547,0.8781714662909508,0.8545500338077545,0.8443010002374649,0.8423115909099579,0.8387817591428757,0.8295048475265503,0.788326233625412
0.9866845775395632,0.9593545459210873,0.9137967675924301,0.8753568828105927,0.8534744083881378,0.8427417129278183,0.8358425199985504,0.8287876397371292,0.7743594795465469,0.6434413194656372
0.9866846986114979,0.9658258147537708,0.9208158552646637,0.8828931450843811,0.8583140969276428,0.8472902178764343,0.8449302911758423,0.8415323048830032,0.8383999168872833,0.8273401856422424
0.9866847638040781,0.9013350531458855,0.8788545280694962,0.863188236951828,0.8509433269500732,0.8430689424276352,0.8377749025821686,0.8258567154407501,0.7980957329273224,0.7559515684843063
0.9866848150268197,0.9561483636498451,0.9082690924406052,0.8740571886301041,0.8579935729503632,0.8501613140106201,0.8476914465427399,0.846985936164856,0.8440219163894653,0.83824323117733
0.9866852443665266,0.9701218716800213,0.9270834624767303,0.8837430700659752,0.8598711043596268,0.8477926254272461,0.8400953263044357,0.829875260591507,0.8224114775657654,0.8084861189126968
0.9977630036883056,0.9864117000252008,0.9551551938056946,0.9101276993751526,0.8766069710254669,0.8601060658693314,0.8540331870317459,0.8494064807891846,0.8489224910736084,0.8419315814971924
0.9482744969427586,0.9324936866760254,0.9014636278152466,0.869851678609848,0.8532588332891464,0.8466552048921585,0.8436356782913208,0.8396455645561218,0.8188279271125793,0.8081195205450058
