0.0,0.013147168923266062,0.02392852416971525,0.03527781364004279,0.04224849479499149,0.04504020119620311,0.04705334513227155,0.05095699064073378,0.056862315372139705,0.06633555615801379
2.3010545685542283e-06,0.014286048759715286,0.02495268801455708,0.0365004455335195,0.04415345197877141,0.046240091912939874,0.04827063768053208,0.05169091251646185,0.05845887651671722,0.06824004753410973
0.004433237441498483,0.0169944814399563,0.03397360502546809,0.046891838930035235,0.05518557321553874,0.06214042474882431,0.07849673085903286,0.12170145157631707,0.33704074873268786,0.6236154659189475
0.004433192403034525,0.01146655307583666,0.02286366148612018,0.03578223717723539,0.04522120148603781,0.05031691592547505,0.052025543826792364,0.05711212256875353,0.08529484211207716,0.0612619062910178
0.0044333969719834165,0.01336512202436202,0.022480781955712792,0.03260124360459471,0.039785846131101255,0.04278535657904914,0.045270070666295736,0.04755922976261251,0.05240214652798303,0.0598941309469293
0.004432798910872449,0.011204001675332642,0.02362642363875478,0.036813715968020744,0.046029315818666205,0.051834753208771844,0.05716674184128301,0.06688437792759172,0.14064224681632354,0.3030861462441381
0.007199019119815908,0.010417232796331333,0.0182511698541038,0.028781412282885555,0.03676455659374678,0.04328078592998941,0.04557410413486929,0.047089759440002266,0.048192020904461064,0.04942791004876279
0.04136097110121695,0.03630649256283369,0.037676310087274234,0.0404143385707757,0.042622562854714996,0.04431732402284194,0.0463610814049914,0.04879515538164414,0.05468301415428656,0.05697521037031128
