1.0,0.9637750759720802,0.905818372964859,0.8590412586927414,0.8359581232070923,0.8257168978452682,0.8186366111040115,0.8157311975955963,0.8050232976675034,0.7808798104524612
0.999999841578969,0.9715065341442823,0.9218887016177177,0.8666817843914032,0.8387198746204376,0.826171264052391,0.8184584230184555,0.814251109957695,0.8063265383243561,0.7814469188451767
0.988769294694066,0.963174469769001,0.9102209284901619,0.8581734895706177,0.8333139717578888,0.8212462812662125,0.8090618252754211,0.7763680964708328,0.7405558526515961,0.6666930615901947
0.988768681883812,0.9689080193638802,0.9234087243676186,0.8715604543685913,0.8417693376541138,0.8285937607288361,0.8220468610525131,0.8135068714618683,0.8085559010505676,0.8051099926233292
0.9887682572007179,0.9526733011007309,0.9011110365390778,0.8599333465099335,0.8398358970880508,0.8276287615299225,0.8208891302347183,0.8167451024055481,0.8115771114826202,0.8035382330417633
0.9887689556926489,0.9717270396649837,0.9284624233841896,0.8701660335063934,0.8385733813047409,0.8257927745580673,0.8130341023206711,0.8025408089160919,0.7912883907556534,0.7668682336807251
0.9886883217841387,0.9767402000725269,0.9463919103145599,0.8994152545928955,0.8588979244232178,0.8372222483158112,0.8267825543880463,0.8213761150836945,0.822226345539093,0.8113721609115601
0.9530712813138962,0.9317543208599091,0.8970588892698288,0.864301472902298,0.840067595243454,0.825204998254776,0.8177236318588257,0.8142111152410507,0.7868388295173645,0.783811405301094
