0.0,0.009575577445093075,0.014907499793355039,0.019953218398634842,0.023797391979521798,0.02863542392396068,0.036382312474014245,0.04956980581332804,0.07527743606502657,0.10303966089509098
1.2768201954616032e-06,0.010671061389562975,0.016187375761961498,0.021802956045943844,0.02707793624373067,0.03300131354331037,0.03847549804827732,0.0504037402400227,0.08884586565357111,0.11950406021761595
0.006726453267400401,0.012114899745711782,0.01943778847640454,0.025964879554048026,0.030929203574227238,0.037273797973528144,0.04772555854221128,0.0782921618286867,0.13020014553892756,0.7387878932856857
0.006726105631025825,0.010116631619265348,0.014892144578839805,0.020808994481849474,0.024960425209623494,0.029304259685213996,0.03181110506444951,0.056310505181425,0.05598823482560977,0.10441042297217196
0.006725904144158634,0.010066675533999092,0.014406045700791736,0.018737304202665506,0.02174563472374691,0.025515020769049657,0.03035483760693125,0.041887972135156715,0.05509816691906266,0.07015906280270734
0.006725733382004773,0.009948839330918169,0.015871612293039683,0.02272182560675684,0.027970055554478623,0.03137418210177445,0.048382391536720415,0.17776072413218846,0.31137161410011716,0.3275734945748129
0.0005228194508930528,0.0020428398560373706,0.006276160191856839,0.012610565394899353,0.01739911605426503,0.02130754299117632,0.02576219684132708,0.03206158328264319,0.036865315721713254,0.04173812308583036
0.009268061641631742,0.009250204578568177,0.013267983840561715,0.018871237340252534,0.024153392653122552,0.03047180799509608,0.03870567780065881,0.05248500420995328,0.07406628440936303,0.0916703554053293
