0.0,0.03590989485383034,0.08295923471450806,0.13525258004665375,0.16998296976089478,0.18697425723075867,0.1956058144569397,0.2000591903924942,0.20609374344348907,0.20730820298194885
1.3051492260274244e-06,0.03590787947177887,0.08295929431915283,0.13524875044822693,0.16997763514518738,0.18697255849838257,0.1956029236316681,0.2000577449798584,0.2060917168855667,0.20730644464492798
0.003948482219129801,0.03614770248532295,0.0864105075597763,0.14177967607975006,0.17529666423797607,0.19647923111915588,0.21510276198387146,0.23954805731773376,0.2853342890739441,0.25800028443336487
0.00394651060923934,0.021215999498963356,0.06588728725910187,0.11627639830112457,0.1587497740983963,0.18478217720985413,0.19613011181354523,0.20234249532222748,0.21428720653057098,0.2265024185180664
0.003952580504119396,0.035565733909606934,0.07858823239803314,0.12488872557878494,0.16014863550662994,0.18014974892139435,0.18377786874771118,0.1900273710489273,0.19822067022323608,0.20365822315216064
0.003953707870095968,0.020801512524485588,0.06363153457641602,0.11478108912706375,0.15837353467941284,0.18527722358703613,0.20087000727653503,0.21591295301914215,0.2485145479440689,0.27508485317230225
0.042967572808265686,0.05646056309342384,0.0872211828827858,0.12411849945783615,0.15518151223659515,0.18621183931827545,0.2005588263273239,0.20403309166431427,0.20885926485061646,0.21157750487327576
0.07524354010820389,0.08950557559728622,0.12238801270723343,0.15380533039569855,0.17738117277622223,0.19717928767204285,0.20917437970638275,0.21409361064434052,0.21392470598220825,0.21612542867660522
