0.0,0.04754271358251572,0.11503641307353973,0.19106201827526093,0.23148828744888306,0.24268515408039093,0.24967116117477417,0.2537337839603424,0.2666934132575989,0.2776263356208801
3.955424432433574e-09,0.04754270613193512,0.11503642052412033,0.19106198847293854,0.23148801922798157,0.24268516898155212,0.24967169761657715,0.2537337839603424,0.26669344305992126,0.27762627601623535
0.006028063595294952,0.05142112821340561,0.12347323447465897,0.19419732689857483,0.22907781600952148,0.25380346179008484,0.2695317268371582,0.269502192735672,0.32415980100631714,0.3114849328994751
0.006028087809681892,0.03069453127682209,0.09041782468557358,0.16328614950180054,0.2144280970096588,0.24075406789779663,0.25041109323501587,0.2587682008743286,0.2871493399143219,0.2680126428604126
0.00602802075445652,0.045235179364681244,0.10447254776954651,0.17595145106315613,0.22144177556037903,0.2379778027534485,0.2422710806131363,0.2457185983657837,0.25494328141212463,0.26054808497428894
0.0060279956087470055,0.030177555978298187,0.08857592940330505,0.16262975335121155,0.2161942720413208,0.24135228991508484,0.26302802562713623,0.2709618806838989,0.30861592292785645,0.32274481654167175
0.010762046091258526,0.03500651940703392,0.07867084443569183,0.13699015974998474,0.2039400339126587,0.24639654159545898,0.26191216707229614,0.26579922437667847,0.2777710556983948,0.2834404706954956
0.07187768816947937,0.11123445630073547,0.17122766375541687,0.2233816534280777,0.25223037600517273,0.27067428827285767,0.2806645333766937,0.29023614525794983,0.2932371199131012,0.2964807450771332
