0.9792933588187581,0.974513916502097,0.9675059143736112,0.9566919897879141,0.9442014211618509,0.9306724716792543,0.9060944176500382,0.8846928909076728,0.8565196638064229,0.83146880741603

0.9792940558697718,0.9744559184950482,0.967221666796272,0.9566218538947466,0.9469312457554938,0.9361574111595695,0.9173902983416083,0.8967251049875226,0.8819674744148213,0.8667038729454827

0.9792959185274078,0.9746699872072492,0.9681860664088191,0.9587190499427095,0.9491542161247,0.9393835448023043,0.9208682724403422,0.8999334669687821,0.8837062321942016,0.8672040095777448

















