# Blender v2.80 (sub 75) OBJ File: ''
# www.blender.org
mtllib FotoStage.mtl
o Plane
v -1.000000 0.000000 1.000000
v 1.000000 0.000000 1.000000
v -1.000000 1.697789 -1.000000
v 1.000000 1.697789 -1.000000
v -1.000000 0.000000 -0.772147
v -1.000000 0.227853 -1.000000
v -1.000000 0.001949 -0.801887
v -1.000000 0.007764 -0.831119
v -1.000000 0.017344 -0.859342
v -1.000000 0.030527 -0.886073
v -1.000000 0.047085 -0.910855
v -1.000000 0.066737 -0.933263
v -1.000000 0.089145 -0.952915
v -1.000000 0.113927 -0.969473
v -1.000000 0.140658 -0.982656
v -1.000000 0.168881 -0.992236
v -1.000000 0.198113 -0.998051
v 1.000000 0.227853 -1.000000
v 1.000000 0.000000 -0.772147
v 1.000000 0.198113 -0.998051
v 1.000000 0.168881 -0.992236
v 1.000000 0.140658 -0.982656
v 1.000000 0.113927 -0.969473
v 1.000000 0.089145 -0.952915
v 1.000000 0.066737 -0.933263
v 1.000000 0.047085 -0.910855
v 1.000000 0.030527 -0.886073
v 1.000000 0.017344 -0.859342
v 1.000000 0.007764 -0.831119
v 1.000000 0.001949 -0.801887
vt 0.000000 1.000000
vt 1.000000 1.000000
vt 1.000000 1.000000
vt 0.000000 1.000000
vt 0.000000 1.000000
vt 1.000000 1.000000
vt 0.000000 1.000000
vt 1.000000 1.000000
vt 0.000000 1.000000
vt 1.000000 1.000000
vt 0.000000 1.000000
vt 1.000000 1.000000
vt 0.000000 1.000000
vt 1.000000 1.000000
vt 0.000000 1.000000
vt 1.000000 1.000000
vt 0.000000 0.955427
vt 1.000000 0.955427
vt 0.000000 0.943037
vt 1.000000 0.943037
vt 0.000000 0.929671
vt 1.000000 0.929671
vt 0.000000 0.915560
vt 1.000000 0.915560
vt 0.000000 0.900944
vt 1.000000 0.900944
vt 0.000000 0.886073
vt 1.000000 0.886073
vt 0.000000 0.000000
vt 1.000000 0.000000
vn 0.0000 0.0327 0.9995
vn 0.0000 0.0000 1.0000
vn 0.0000 0.1305 0.9914
vn 0.0000 0.2588 0.9659
vn 0.0000 0.3827 0.9239
vn 0.0000 0.5000 0.8660
vn 0.0000 0.6088 0.7933
vn 0.0000 0.7071 0.7071
vn 0.0000 0.7933 0.6088
vn 0.0000 0.8660 0.5000
vn 0.0000 0.9239 0.3827
vn 0.0000 0.9659 0.2588
vn 0.0000 0.9914 0.1305
vn 0.0000 0.9995 0.0327
vn 0.0000 1.0000 0.0000
usemtl None
s 1
f 6/1/1 18/2/1 4/3/2 3/4/2
f 18/2/1 6/1/1 17/5/3 20/6/3
f 20/6/3 17/5/3 16/7/4 21/8/4
f 21/8/4 16/7/4 15/9/5 22/10/5
f 22/10/5 15/9/5 14/11/6 23/12/6
f 23/12/6 14/11/6 13/13/7 24/14/7
f 24/14/7 13/13/7 12/15/8 25/16/8
f 25/16/8 12/15/8 11/17/9 26/18/9
f 26/18/9 11/17/9 10/19/10 27/20/10
f 27/20/10 10/19/10 9/21/11 28/22/11
f 28/22/11 9/21/11 8/23/12 29/24/12
f 29/24/12 8/23/12 7/25/13 30/26/13
f 30/26/13 7/25/13 5/27/14 19/28/14
f 1/29/15 2/30/15 19/28/14 5/27/14
