0.0,0.06395956873893738,0.15262286365032196,0.25490880012512207,0.3072153329849243,0.3294065594673157,0.3361080288887024,0.3432850241661072,0.35251134634017944,0.3609602153301239
1.8321857169212308e-06,0.06395496428012848,0.1526246815919876,0.2549022436141968,0.3072148263454437,0.3294089436531067,0.3361130952835083,0.34328967332839966,0.35251665115356445,0.36096248030662537
0.007380619645118713,0.06484103947877884,0.1564740240573883,0.25226423144340515,0.30284202098846436,0.34276852011680603,0.3583959937095642,0.3962688744068146,0.4418216049671173,0.41746166348457336
0.007379351649433374,0.038564909249544144,0.12004783004522324,0.21494948863983154,0.2816283404827118,0.3209076523780823,0.33862602710723877,0.34489068388938904,0.35578596591949463,0.38107267022132874
0.007379654794931412,0.1494642049074173,0.20098914206027985,0.2565293312072754,0.30687153339385986,0.3361363112926483,0.352317750453949,0.36472538113594055,0.40003758668899536,0.43855419754981995
0.007379436865448952,0.05888907238841057,0.14202982187271118,0.23195192217826843,0.290779709815979,0.31923818588256836,0.32680878043174744,0.32922258973121643,0.33959028124809265,0.35043972730636597
0.007379488553851843,0.037700556218624115,0.11476297676563263,0.20981769263744354,0.2811042070388794,0.3215416669845581,0.3471003770828247,0.3613039255142212,0.42692121863365173,0.45176607370376587
0.07192600518465042,0.10664191842079163,0.1624159812927246,0.2270246148109436,0.2880733907222748,0.33116811513900757,0.3452589213848114,0.34585464000701904,0.352833092212677,0.35459956526756287
0.18157872557640076,0.2080935537815094,0.26345235109329224,0.30772367119789124,0.336387038230896,0.34846460819244385,0.3579222857952118,0.3654272258281708,0.36268195509910583,0.3648962676525116

