0.0,0.05252897762043196,0.10230909727511195,0.15696744878795899,0.1780411039439841,0.18710862222168867,0.1954309152368522,0.20365709208866667,0.20950214413624835,0.21266282542261594
9.338975676120853e-07,0.05252954568570667,0.10230962098249907,0.1569676796410252,0.17804115736290005,0.1871088478023727,0.19543103143944196,0.20365724955908637,0.20950227872837834,0.21266297141744317
0.019453984665026014,0.07167068181776193,0.12605159808522737,0.18017843295082558,0.1995877825445712,0.21820761053737403,0.23670272281209048,0.26047943876886104,0.366094155881015,0.32233006581675383
0.019453749603239423,0.04775625397717598,0.09040296554337857,0.14584454268586855,0.1829263443894975,0.1933880218528068,0.20646733911534076,0.22532999978416546,0.24593789661035037,0.22255610515059565
0.019454446168261863,0.1497450021975476,0.16918952301795243,0.17933287291881783,0.18932236283130122,0.2069595731077657,0.22463544114612244,0.23946554175271473,0.25878748164577947,0.36898293261964554
0.019455482993053885,0.04716378933216803,0.09024129037145834,0.14588448441490687,0.1717053275425181,0.1800306111529264,0.18489989218886427,0.19024773093854142,0.2010709315916751,0.20827169384446576
0.01945538947235359,0.04382259732029248,0.08870522067716602,0.14602299942276253,0.18389915799003964,0.19503976928716626,0.2166008028065286,0.2637871121052173,0.40359581933352906,0.49248970218720545
0.03631568896002302,0.054008515819367275,0.09473585550734842,0.14535897967476286,0.17513882350201904,0.1878659880597584,0.1938492902500003,0.19851387675233367,0.20308889144300346,0.20904384202465354
0.15672056038165483,0.15649355789061004,0.17082379723564356,0.18380067414024215,0.19340063193261037,0.19777688068980226,0.20089377266950115,0.20628643430426818,0.20760866531008515,0.20799306368165416
