0.0,0.048656202865978826,0.09584214855257389,0.14696378971356683,0.16634107022303546,0.177159103996117,0.1851288872063912,0.19178597356278404,0.19315932441774197,0.1974487718904342
3.7917589198466217e-06,0.04865884982330948,0.09584414144727071,0.14696525246725411,0.1663426628800192,0.17716081741432355,0.1851306614548518,0.19178704515929346,0.19316030325651024,0.19744983512300507
0.015892332327740344,0.06511865451406074,0.11664365389683795,0.1705981277796481,0.19198493179301168,0.21005620844490291,0.2510320607162134,0.3407189041455807,0.3942371984979598,0.35863283868238083
0.01589394596255478,0.04186551148733508,0.08340704779215369,0.13390617174866104,0.17018868482969385,0.18734919904888125,0.20320815059765351,0.21377833345119723,0.22379026732942553,0.26947873810423617
0.015895374067018242,0.13718541214098334,0.1555852462508721,0.16890989326054962,0.18377289769730154,0.20213775087300956,0.22759728998034756,0.24985140420043894,0.32781892900931453,0.43070288951922253
0.01589743061290283,0.049258037929022946,0.09035086574313478,0.14332843393794004,0.16637804869736295,0.17282547438960483,0.1753608812421915,0.1802295780008759,0.18408136521189267,0.18951529689274704
0.01589649554439354,0.038245268863042914,0.08189947384916263,0.13417909200682832,0.17197722330708132,0.18970065372485267,0.21128880120338778,0.25238738606875233,0.3886752170226849,0.4935536311763712
0.053070434720324466,0.07021267153264488,0.10789036989471923,0.15520393855306225,0.17649114485740114,0.18525553230585723,0.18871282994729566,0.18977886755516193,0.1918649813758888,0.19210358011942785
0.16727368643113216,0.16241854572386705,0.1714686904944438,0.17990499010020822,0.18640436544943617,0.18951015770202162,0.19130644247277162,0.1916015934700962,0.1903412743583459,0.19007757876261222
