0.0,0.031647803459009416,0.06312164709164614,0.09447901001972092,0.10703089844642066,0.11260471890603974,0.11791612754531311,0.12270810276528066,0.12770964003076102,0.13155977664416418
3.8169173266489054e-08,0.031647844495376165,0.06312162206468663,0.09447907039888337,0.10703093316076961,0.11260472112601017,0.11791605579696018,0.12270810522854303,0.12770964297497744,0.13155977503500826
0.010132096244834798,0.04253249131066339,0.0780946230739561,0.11109589658106778,0.12087047979808119,0.13158055056000573,0.16114498912401143,0.17590963607150856,0.2637778406187463,0.24766579555081414
0.010132055320263511,0.027410023628755664,0.05509075034431854,0.08891089571371913,0.11103324825678129,0.11946237264238013,0.1277673918638622,0.1419246618259854,0.179937905394549,0.1457088443121407
0.010132083659140867,0.09071599982200207,0.10252515619248415,0.109100925660091,0.11570310586546151,0.125788265990185,0.1460464634954003,0.16568236101750855,0.16708665425707092,0.23421169063575642
0.01013230057057568,0.02768527891602235,0.05590100723085989,0.08867332285146301,0.1034670020857158,0.10852794679123468,0.11188069815469659,0.11533242752661421,0.12008846241940019,0.12370465635816741
0.010132111826443357,0.025085412948996022,0.0540152944064024,0.08867016336960509,0.11125479467726895,0.11997844900008137,0.1321562386935934,0.16386563634756868,0.23582800346122246,0.34035398594000166
0.011193933951355928,0.02028962137785173,0.04293488089567887,0.07836007339278739,0.10293725779754104,0.11269332635286666,0.11651019216948855,0.12023072901172505,0.12454147763044754,0.12659818126793787
0.07124428174061004,0.0771323628352012,0.0936442961738736,0.10682743535838524,0.11562144507586625,0.11961827222129795,0.1213646121326496,0.12402600469929137,0.12512209695659138,0.12561083421277675
