1.0,0.9866551979888682,0.9751398108581824,0.9653489322866666,0.959694577733711,0.9497182723110416,0.9300310890286067,0.910032638644509,0.8880558236946078,0.8690473408613384
0.9999937392708006,0.9866508985037493,0.9751351258396959,0.9653441271559299,0.9596900039276282,0.9497130291299841,0.9300262165784683,0.9100272622549598,0.8880536344051687,0.8690443896500138
0.9975297130777814,0.9912326044089329,0.979812122917389,0.9702469792738397,0.9584967213727743,0.9404812169332702,0.9014872047407795,0.8157702880354339,0.8270472234310177,0.7599844962045608
0.9975297727606032,0.9938743413115886,0.9857504462878985,0.9799729687114175,0.974028176399946,0.9631522460930647,0.94072524793375,0.9162491305119099,0.9028542532537678,0.826943101177536
0.9975319481689636,0.978704493378777,0.9769615925146233,0.9747836953056206,0.9643145038763009,0.94363442712702,0.9063790478841053,0.8480970739271397,0.8144840819348973,0.8209305139445918
0.9975324334744915,0.9916516433012846,0.9858383344419259,0.9802634256165842,0.9751410642170252,0.9679447460589204,0.9535495358546947,0.9356673524577462,0.9169097721275943,0.8925906311971209
0.9975287562545807,0.9912153434982786,0.9801890082411372,0.9705890259169675,0.9560673149739373,0.9280836741589168,0.8966167031893507,0.8450501725428676,0.7779300029900748,0.7478732152616138
0.9792959185274078,0.9746699872072492,0.9681860664088191,0.9587190499427095,0.9491542161247,0.9393835448023043,0.9208682724403422,0.8999334669687821,0.8837062321942016,0.8672040095777448
0.9093862185296353,0.9147471291367348,0.9185834642204703,0.9219142949933453,0.9222430797765265,0.9132450425801668,0.9014886503321732,0.8881218979869954,0.8713964992651677,0.8670064521037032

