1.0,0.9911042724969595,0.9829845445312646,0.9782646525130413,0.9749727422020289,0.9691840191100017,0.9538850535242789,0.9312794472020446,0.907376505391816,0.8944555615618244
0.9999964001186976,0.991102302157342,0.9829820905097536,0.978262681507465,0.9749709108203518,0.9691820822459224,0.9538836451295957,0.9312781021597024,0.9073755760809442,0.8944549481694916
0.9983518566098487,0.9927888527648342,0.9850534760748478,0.9794853042456723,0.9697046922195692,0.9563600110557906,0.9370735745691944,0.8472560487148867,0.8508345683734438,0.7495713427651772
0.9983530712196166,0.9949804835572084,0.9891656739403342,0.9852295993086612,0.9820344586003977,0.974349811139592,0.9502732712710776,0.9275470639328219,0.9216098236232938,0.8197051399633106
0.998352163173215,0.9847211672024482,0.9838412086129416,0.9825513318509352,0.9754535603197607,0.9596705596641525,0.9337818420722387,0.895893323224831,0.8355111573241066,0.8241476948874144
0.9983530222007911,0.9926607373359193,0.9886687272465453,0.9854117806699508,0.9827842465121082,0.9773621700295839,0.9674196199844526,0.951084417229782,0.9286627114456412,0.9056042110637718
0.9983528954953034,0.9928888886424421,0.9851937223846003,0.9796770422216335,0.9705515207855142,0.9504982561211626,0.9236338343582648,0.877378683648652,0.8072978823934526,0.7681830684736518
0.9790723775350688,0.9755573131376631,0.969523237407854,0.9616167352749624,0.9542083270676119,0.9494873972404315,0.934972314943688,0.9151120212320061,0.9025832918362001,0.8990238012171896
0.8997198868757015,0.9044351081542031,0.9090140093932564,0.9157318973155896,0.92442463490687,0.9252654611333629,0.9200180705848254,0.9118709004784259,0.9057319020346606,0.9051550329420325

