1.0,0.9876778758630226,0.9781483956695788,0.9699936831667425,0.9632317883270783,0.9509092607013163,0.9323261950983395,0.9048091421332289,0.8780965022282742,0.8673030060421564
0.9999907239427134,0.9876711859013331,0.9781418815674824,0.9699873072498092,0.9632262110935036,0.9509039074911279,0.9323214416150419,0.904805468513825,0.878093423204243,0.8673001091327203
0.99770044703717,0.9893426150379713,0.9786418378933078,0.9704226253515541,0.9571260864119822,0.9379245885795289,0.9034634129480702,0.8320775783421043,0.811810128958447,0.7617049377981787
0.9977020401555269,0.9927349495279452,0.9850283349977799,0.9786142027681451,0.9715174128991989,0.9619321352933964,0.942540135239229,0.9118824662045579,0.8930259969851869,0.8241981791785808
0.9976998649685883,0.9773952191216514,0.9755183860626913,0.9731556739820393,0.9620593584853884,0.9423978039027353,0.9103584814667217,0.8637995345258528,0.8127880021089867,0.8306354974844853
0.9977028118251465,0.9915811317598503,0.9855989463058986,0.9791007850330414,0.973117451904613,0.966381167255386,0.9523460376136857,0.9318815495002557,0.9078675693131294,0.8821067729233
0.9977041853995315,0.9895314146653118,0.979117589303185,0.9689375141649027,0.9563069308519075,0.9296577286075728,0.8964185738606872,0.8524008629753834,0.7923825165303308,0.7625896372635909
0.964337642073921,0.9608308842337984,0.9539664964437841,0.9449424840106313,0.9365119733241897,0.9290500859754459,0.9119398282983339,0.8911312093295979,0.8721136092846217,0.8662310745867204
0.8904709123146127,0.8958667722167667,0.9010240076530648,0.9076155463754721,0.9112252261769368,0.9019750201051151,0.8887657527337551,0.8748144952232871,0.868346197928361,0.8656677888731208

