1.0,0.9360404312610626,0.847377136349678,0.7450911998748779,0.6927846670150757,0.6705934405326843,0.6638919711112976,0.6567149758338928,0.6474886536598206,0.6390397846698761
0.9999981678142831,0.9360450357198715,0.8473753184080124,0.7450977563858032,0.6927851736545563,0.6705910563468933,0.6638869047164917,0.6567103266716003,0.6474833488464355,0.6390375196933746
0.9926193803548813,0.9351589605212212,0.8435259759426117,0.7477357685565948,0.6971579790115356,0.657231479883194,0.6416040062904358,0.6037311255931854,0.5581783950328827,0.5825383365154266
0.9926206483505666,0.9614350907504559,0.8799521699547768,0.7850505113601685,0.7183716595172882,0.6790923476219177,0.6613739728927612,0.655109316110611,0.6442140340805054,0.6189273297786713
0.992620563134551,0.9411109276115894,0.8579701781272888,0.7680480778217316,0.709220290184021,0.6807618141174316,0.6731912195682526,0.6707774102687836,0.6604097187519073,0.649560272693634
0.9926205114461482,0.9622994437813759,0.8852370232343674,0.7901823073625565,0.7188957929611206,0.6784583330154419,0.6528996229171753,0.6386960744857788,0.5730787813663483,0.5482339262962341
0.9280739948153496,0.8933580815792084,0.8375840187072754,0.7729753851890564,0.7119266092777252,0.6688318848609924,0.6547410786151886,0.654145359992981,0.647166907787323,0.6454004347324371
0.8184212744235992,0.7919064462184906,0.7365476489067078,0.6922763288021088,0.663612961769104,0.6515353918075562,0.6420777142047882,0.6345727741718292,0.6373180449008942,0.6351037323474884
