0.0,0.03627898916602135,0.08792926371097565,0.12652242183685303,0.14496226608753204,0.1534934937953949,0.15495306253433228,0.1578325480222702,0.16827943921089172,0.21131804585456848
1.1023279000710318e-07,0.03171826899051666,0.07991218566894531,0.12182853370904922,0.14544996619224548,0.1556989997625351,0.15768840909004211,0.16121824085712433,0.1704951524734497,0.211673766374588
0.013315422460436821,0.040645454078912735,0.08620323240756989,0.12464311718940735,0.14652559161186218,0.1572582870721817,0.16415748000144958,0.1712123602628708,0.22564052045345306,0.3565586805343628
0.013315301388502121,0.03417418524622917,0.0791841447353363,0.1171068549156189,0.14168590307235718,0.15270978212356567,0.15506970882415771,0.15846769511699677,0.16160008311271667,0.17265981435775757
0.013315184973180294,0.04385163635015488,0.09173090755939484,0.12594281136989594,0.14200642704963684,0.14983868598937988,0.15230855345726013,0.15301406383514404,0.15597808361053467,0.16175676882266998
0.013314755633473396,0.029878128319978714,0.07291653752326965,0.11625692993402481,0.14012889564037323,0.1522073745727539,0.15990467369556427,0.17012473940849304,0.17758852243423462,0.19151388108730316
0.0022369963116943836,0.013588299974799156,0.04484480619430542,0.08987230062484741,0.12339302897453308,0.13989393413066864,0.1459668129682541,0.15059351921081543,0.1510775089263916,0.15806841850280762
0.05172550305724144,0.06750631332397461,0.09853637218475342,0.13014832139015198,0.14674116671085358,0.1533447951078415,0.1563643217086792,0.16035443544387817,0.18117207288742065,0.1918804794549942
