1.0,0.9904244225549069,0.985092500206645,0.9800467816013652,0.9762026080204782,0.9713645760760393,0.9636176875259858,0.950430194186672,0.9247225639349734,0.896960339104909
0.9999987231798045,0.989328938610437,0.9838126242380385,0.9781970439540562,0.9729220637562693,0.9669986864566896,0.9615245019517227,0.9495962597599773,0.9111541343464289,0.880495939782384
0.9932735467325996,0.9878851002542882,0.9805622115235955,0.974035120445952,0.9690707964257728,0.9627262020264719,0.9522744414577887,0.9217078381713133,0.8697998544610724,0.2612121067143142
0.9932738943689742,0.9898833683807347,0.9851078554211602,0.9791910055181505,0.9750395747903765,0.970695740314786,0.9681888949355505,0.943689494818575,0.9440117651743902,0.895589577027828
0.9932740958558414,0.9899333244660009,0.9855939542992083,0.9812626957973345,0.9782543652762531,0.9744849792309503,0.9696451623930687,0.9581120278648433,0.9449018330809373,0.9298409371972927
0.9932742666179952,0.9900511606690818,0.9841283877069603,0.9772781743932432,0.9720299444455214,0.9686258178982255,0.9516176084632796,0.8222392758678115,0.6886283858998828,0.6724265054251871
0.999477180549107,0.9979571601439626,0.9937238398081432,0.9873894346051006,0.982600883945735,0.9786924570088237,0.9742378031586729,0.9679384167173568,0.9631346842782867,0.9582618769141696
0.9907319383583683,0.9907497954214318,0.9867320161594383,0.9811287626597475,0.9758466073468774,0.9695281920049039,0.9612943221993412,0.9475149957900467,0.925933715590637,0.9083296445946707
