\relax 
\providecommand\hyper@newdestlabel[2]{}
\providecommand*\new@tpo@label[2]{}
\bbl@cs{beforestart}
\catcode `"\active 
\abx@aux@refcontext{anyt/global//global/global}
\providecommand\HyperFirstAtBeginDocument{\AtBeginDocument}
\HyperFirstAtBeginDocument{\ifx\hyper@anchor\@undefined
\global\let\oldcontentsline\contentsline
\gdef\contentsline#1#2#3#4{\oldcontentsline{#1}{#2}{#3}}
\global\let\oldnewlabel\newlabel
\gdef\newlabel#1#2{\newlabelxx{#1}#2}
\gdef\newlabelxx#1#2#3#4#5#6{\oldnewlabel{#1}{{#2}{#3}}}
\AtEndDocument{\ifx\hyper@anchor\@undefined
\let\contentsline\oldcontentsline
\let\newlabel\oldnewlabel
\fi}
\fi}
\global\let\hyper@last\relax 
\gdef\HyperFirstAtBeginDocument#1{#1}
\providecommand\HyField@AuxAddToFields[1]{}
\providecommand\HyField@AuxAddToCoFields[2]{}
\providecommand\BKM@entry[2]{}
\@writefile{toc}{\boolfalse {citerequest}\boolfalse {citetracker}\boolfalse {pagetracker}\boolfalse {backtracker}\relax }
\@writefile{lof}{\boolfalse {citerequest}\boolfalse {citetracker}\boolfalse {pagetracker}\boolfalse {backtracker}\relax }
\@writefile{lot}{\boolfalse {citerequest}\boolfalse {citetracker}\boolfalse {pagetracker}\boolfalse {backtracker}\relax }
\babel@aux{american}{}
\BKM@entry{id=1,dest={446F632D5374617274},srcline={1}}{41636B6E6F776C6564676D656E7473}
\@writefile{toc}{\defcounter {refsection}{0}\relax }\@writefile{toc}{\contentsline {chapter}{Acknowledgments}{iii}{Doc-Start}\protected@file@percent }
\BKM@entry{id=2,dest={636861707465722A2E31},srcline={1}}{4162737472616374}
\@writefile{toc}{\defcounter {refsection}{0}\relax }\@writefile{toc}{\contentsline {chapter}{\nonumberline Abstract}{iv}{chapter*.1}\protected@file@percent }
\@writefile{lof}{\defcounter {refsection}{0}\relax }\@writefile{lof}{\addvspace {10\p@ }}
\@writefile{lot}{\defcounter {refsection}{0}\relax }\@writefile{lot}{\addvspace {10\p@ }}
\@writefile{lol}{\defcounter {refsection}{0}\relax }\@writefile{lol}{\addvspace {10\p@ }}
\@writefile{loa}{\defcounter {refsection}{0}\relax }\@writefile{loa}{\addvspace {10\p@ }}
\BKM@entry{id=3,dest={746F632E30},srcline={36}}{436F6E74656E7473}
\BKM@entry{id=4,dest={636861707465722E31},srcline={4}}{496E74726F64756374696F6E}
\abx@aux@cite{10.1145/964967.801126}
\abx@aux@segm{0}{0}{10.1145/964967.801126}
\BKM@entry{id=5,dest={73656374696F6E2E312E31},srcline={7}}{4D69706D617070696E67}
\abx@aux@cite{10.1145/964967.801126}
\abx@aux@segm{0}{0}{10.1145/964967.801126}
\abx@aux@cite{10.1145/964967.801126}
\abx@aux@segm{0}{0}{10.1145/964967.801126}
\abx@aux@cite{mipAliasingExampleImage}
\abx@aux@segm{0}{0}{mipAliasingExampleImage}
\abx@aux@cite{mipAliasingExampleImage}
\abx@aux@segm{0}{0}{mipAliasingExampleImage}
\abx@aux@cite{mipExampleImage}
\abx@aux@segm{0}{0}{mipExampleImage}
\abx@aux@cite{mipExampleImage}
\abx@aux@segm{0}{0}{mipExampleImage}
\BKM@entry{id=6,dest={73656374696F6E2E312E32},srcline={33}}{50726F626C656D732077697468205374616E64617264204D69706D617070696E67}
\@writefile{toc}{\defcounter {refsection}{0}\relax }\@writefile{toc}{\contentsline {chapter}{\numberline {1}Introduction}{1}{chapter.1}\protected@file@percent }
\@writefile{lof}{\defcounter {refsection}{0}\relax }\@writefile{lof}{\addvspace {10\p@ }}
\@writefile{lot}{\defcounter {refsection}{0}\relax }\@writefile{lot}{\addvspace {10\p@ }}
\@writefile{lol}{\defcounter {refsection}{0}\relax }\@writefile{lol}{\addvspace {10\p@ }}
\@writefile{loa}{\defcounter {refsection}{0}\relax }\@writefile{loa}{\addvspace {10\p@ }}
\newlabel{chapter:introduction}{{1}{1}{Introduction}{chapter.1}{}}
\@writefile{toc}{\defcounter {refsection}{0}\relax }\@writefile{toc}{\contentsline {section}{\numberline {1.1}Mipmapping}{1}{section.1.1}\protected@file@percent }
\@writefile{toc}{\defcounter {refsection}{0}\relax }\@writefile{toc}{\contentsline {subsubsection}{\nonumberline Aliasing Effects}{1}{section*.3}\protected@file@percent }
\@writefile{lof}{\defcounter {refsection}{0}\relax }\@writefile{lof}{\contentsline {figure}{\numberline {1.1}{\ignorespaces Demonstration of how a mipmapped image could be stored. The image shows why mipmaps only need one third more memory than the original image. Figure from the original mipmap paper \cite {10.1145/964967.801126}.\relax }}{2}{figure.caption.4}\protected@file@percent }
\providecommand*\caption@xref[2]{\@setref\relax\@undefined{#1}}
\newlabel{fig:mipmapColorChannels}{{1.1}{2}{Demonstration of how a mipmapped image could be stored. The image shows why mipmaps only need one third more memory than the original image. Figure from the original mipmap paper \cite {10.1145/964967.801126}.\relax }{figure.caption.4}{}}
\@writefile{lof}{\defcounter {refsection}{0}\relax }\@writefile{lof}{\contentsline {figure}{\numberline {1.2}{\ignorespaces Image showing the anti-aliasing effects of mipmapping. \cite {mipAliasingExampleImage}\relax }}{2}{figure.caption.5}\protected@file@percent }
\newlabel{fig:MipmapAliasingComparison}{{1.2}{2}{Image showing the anti-aliasing effects of mipmapping. \cite {mipAliasingExampleImage}\relax }{figure.caption.5}{}}
\@writefile{toc}{\defcounter {refsection}{0}\relax }\@writefile{toc}{\contentsline {section}{\numberline {1.2}Problems with Standard Mipmapping}{2}{section.1.2}\protected@file@percent }
\BKM@entry{id=7,dest={73656374696F6E2E312E33},srcline={39}}{41626F7574207468697320546865736973}
\abx@aux@cite{SSIMOrig}
\abx@aux@segm{0}{0}{SSIMOrig}
\abx@aux@cite{zhang2018unreasonable}
\abx@aux@segm{0}{0}{zhang2018unreasonable}
\@writefile{lof}{\defcounter {refsection}{0}\relax }\@writefile{lof}{\contentsline {figure}{\numberline {1.3}{\ignorespaces This image shows an example for a mipmapped texture. The original size texture on the left is combined with the copies of decreasing size. \cite {mipExampleImage}\relax }}{3}{figure.caption.6}\protected@file@percent }
\newlabel{fig:MipMappingExample}{{1.3}{3}{This image shows an example for a mipmapped texture. The original size texture on the left is combined with the copies of decreasing size. \cite {mipExampleImage}\relax }{figure.caption.6}{}}
\@writefile{toc}{\defcounter {refsection}{0}\relax }\@writefile{toc}{\contentsline {section}{\numberline {1.3}About this Thesis}{3}{section.1.3}\protected@file@percent }
\BKM@entry{id=8,dest={636861707465722E32},srcline={4}}{52656C6174656420576F726B}
\BKM@entry{id=9,dest={73656374696F6E2E322E31},srcline={7}}{496D61676520436F6D70617269736F6E204D657472696373}
\abx@aux@cite{4775883}
\abx@aux@segm{0}{0}{4775883}
\BKM@entry{id=10,dest={73756273656374696F6E2E322E312E31},srcline={10}}{5353494D}
\abx@aux@cite{SSIMOrig}
\abx@aux@segm{0}{0}{SSIMOrig}
\abx@aux@cite{1292216}
\abx@aux@segm{0}{0}{1292216}
\abx@aux@cite{5635337}
\abx@aux@segm{0}{0}{5635337}
\abx@aux@cite{6467150}
\abx@aux@segm{0}{0}{6467150}
\BKM@entry{id=11,dest={73756273656374696F6E2E322E312E32},srcline={14}}{4653494D}
\abx@aux@cite{FeaturesInHumanVision}
\abx@aux@segm{0}{0}{FeaturesInHumanVision}
\abx@aux@cite{5705575}
\abx@aux@segm{0}{0}{5705575}
\BKM@entry{id=12,dest={73756273656374696F6E2E322E312E33},srcline={17}}{4844522D5644502D32}
\abx@aux@cite{10.1145/2010324.1964935}
\abx@aux@segm{0}{0}{10.1145/2010324.1964935}
\@writefile{toc}{\defcounter {refsection}{0}\relax }\@writefile{toc}{\contentsline {chapter}{\numberline {2}Related Work}{4}{chapter.2}\protected@file@percent }
\@writefile{lof}{\defcounter {refsection}{0}\relax }\@writefile{lof}{\addvspace {10\p@ }}
\@writefile{lot}{\defcounter {refsection}{0}\relax }\@writefile{lot}{\addvspace {10\p@ }}
\@writefile{lol}{\defcounter {refsection}{0}\relax }\@writefile{lol}{\addvspace {10\p@ }}
\@writefile{loa}{\defcounter {refsection}{0}\relax }\@writefile{loa}{\addvspace {10\p@ }}
\newlabel{chapter:relatedWork}{{2}{4}{Related Work}{chapter.2}{}}
\@writefile{toc}{\defcounter {refsection}{0}\relax }\@writefile{toc}{\contentsline {section}{\numberline {2.1}Image Comparison Metrics}{4}{section.2.1}\protected@file@percent }
\@writefile{toc}{\defcounter {refsection}{0}\relax }\@writefile{toc}{\contentsline {subsection}{\numberline {2.1.1}SSIM}{4}{subsection.2.1.1}\protected@file@percent }
\@writefile{toc}{\defcounter {refsection}{0}\relax }\@writefile{toc}{\contentsline {subsection}{\numberline {2.1.2}FSIM}{4}{subsection.2.1.2}\protected@file@percent }
\BKM@entry{id=13,dest={73756273656374696F6E2E322E312E34},srcline={22}}{4C6561726E6564205065726365707475616C20496D6167652050617463682053696D696C6172697479}
\abx@aux@cite{zhang2018unreasonable}
\abx@aux@segm{0}{0}{zhang2018unreasonable}
\abx@aux@cite{zhang2018unreasonable}
\abx@aux@segm{0}{0}{zhang2018unreasonable}
\BKM@entry{id=14,dest={73656374696F6E2E322E32},srcline={25}}{4D69706D617070696E67}
\abx@aux@cite{10.1145/964967.801126}
\abx@aux@segm{0}{0}{10.1145/964967.801126}
\abx@aux@cite{doi:10.1111/cgf.13221}
\abx@aux@segm{0}{0}{doi:10.1111/cgf.13221}
\abx@aux@cite{10.1111/j.1467-8659.2012.03141.x}
\abx@aux@segm{0}{0}{10.1111/j.1467-8659.2012.03141.x}
\BKM@entry{id=15,dest={73756273656374696F6E2E322E322E31},srcline={33}}{416E69736F74726F7069632046696C746572696E67}
\@writefile{toc}{\defcounter {refsection}{0}\relax }\@writefile{toc}{\contentsline {subsection}{\numberline {2.1.3}HDR-VDP-2}{5}{subsection.2.1.3}\protected@file@percent }
\@writefile{toc}{\defcounter {refsection}{0}\relax }\@writefile{toc}{\contentsline {subsection}{\numberline {2.1.4}Learned Perceptual Image Patch Similarity}{5}{subsection.2.1.4}\protected@file@percent }
\@writefile{toc}{\defcounter {refsection}{0}\relax }\@writefile{toc}{\contentsline {section}{\numberline {2.2}Mipmapping}{5}{section.2.2}\protected@file@percent }
\abx@aux@cite{10.1145/383507.383532}
\abx@aux@segm{0}{0}{10.1145/383507.383532}
\abx@aux@cite{1260775}
\abx@aux@segm{0}{0}{1260775}
\abx@aux@cite{Hüttner}
\abx@aux@segm{0}{0}{Hüttner}
\abx@aux@cite{anisotropicExampleImage}
\abx@aux@segm{0}{0}{anisotropicExampleImage}
\abx@aux@cite{anisotropicExampleImage}
\abx@aux@segm{0}{0}{anisotropicExampleImage}
\BKM@entry{id=16,dest={73656374696F6E2E322E33},srcline={44}}{4F74686572204C4F4420546563686E6971756573}
\@writefile{toc}{\defcounter {refsection}{0}\relax }\@writefile{toc}{\contentsline {subsection}{\numberline {2.2.1}Anisotropic Filtering}{6}{subsection.2.2.1}\protected@file@percent }
\@writefile{lof}{\defcounter {refsection}{0}\relax }\@writefile{lof}{\contentsline {figure}{\numberline {2.1}{\ignorespaces Example of an anisotropic mipmapped texture. The original texture (top left) is accompanied on the diagonal by the scaled images and on the off-diagonals by linearly distorted versions. \cite {anisotropicExampleImage}\relax }}{6}{figure.caption.7}\protected@file@percent }
\newlabel{fig:anisotropicExample}{{2.1}{6}{Example of an anisotropic mipmapped texture. The original texture (top left) is accompanied on the diagonal by the scaled images and on the off-diagonals by linearly distorted versions. \cite {anisotropicExampleImage}\relax }{figure.caption.7}{}}
\BKM@entry{id=17,dest={73756273656374696F6E2E322E332E31},srcline={47}}{4D6573686573}
\abx@aux@cite{polygonLOD}
\abx@aux@segm{0}{0}{polygonLOD}
\BKM@entry{id=18,dest={73756273656374696F6E2E322E332E32},srcline={50}}{53696D756C6174696F6E73}
\abx@aux@cite{WoosuckHong}
\abx@aux@segm{0}{0}{WoosuckHong}
\abx@aux@cite{Sol11}
\abx@aux@segm{0}{0}{Sol11}
\abx@aux@cite{10.5555/2849517.2849543}
\abx@aux@segm{0}{0}{10.5555/2849517.2849543}
\@writefile{toc}{\defcounter {refsection}{0}\relax }\@writefile{toc}{\contentsline {section}{\numberline {2.3}Other LOD Techniques}{7}{section.2.3}\protected@file@percent }
\@writefile{toc}{\defcounter {refsection}{0}\relax }\@writefile{toc}{\contentsline {subsection}{\numberline {2.3.1}Meshes}{7}{subsection.2.3.1}\protected@file@percent }
\@writefile{toc}{\defcounter {refsection}{0}\relax }\@writefile{toc}{\contentsline {subsection}{\numberline {2.3.2}Simulations}{7}{subsection.2.3.2}\protected@file@percent }
\@writefile{toc}{\defcounter {refsection}{0}\relax }\@writefile{toc}{\contentsline {subsubsection}{\nonumberline Fluids}{7}{section*.8}\protected@file@percent }
\@writefile{toc}{\defcounter {refsection}{0}\relax }\@writefile{toc}{\contentsline {subsubsection}{\nonumberline Cloth}{7}{section*.9}\protected@file@percent }
\BKM@entry{id=19,dest={636861707465722E33},srcline={4}}{546563686E6971756573}
\BKM@entry{id=20,dest={73656374696F6E2E332E31},srcline={7}}{42696C696E65617220446F776E2D73616D706C696E67}
\BKM@entry{id=21,dest={73656374696F6E2E332E32},srcline={10}}{426F7820446F776E2D73616D706C696E67}
\@writefile{toc}{\defcounter {refsection}{0}\relax }\@writefile{toc}{\contentsline {chapter}{\numberline {3}Techniques}{8}{chapter.3}\protected@file@percent }
\@writefile{lof}{\defcounter {refsection}{0}\relax }\@writefile{lof}{\addvspace {10\p@ }}
\@writefile{lot}{\defcounter {refsection}{0}\relax }\@writefile{lot}{\addvspace {10\p@ }}
\@writefile{lol}{\defcounter {refsection}{0}\relax }\@writefile{lol}{\addvspace {10\p@ }}
\@writefile{loa}{\defcounter {refsection}{0}\relax }\@writefile{loa}{\addvspace {10\p@ }}
\newlabel{chapter:techniques}{{3}{8}{Techniques}{chapter.3}{}}
\@writefile{toc}{\defcounter {refsection}{0}\relax }\@writefile{toc}{\contentsline {section}{\numberline {3.1}Bilinear Down-sampling}{8}{section.3.1}\protected@file@percent }
\@writefile{toc}{\defcounter {refsection}{0}\relax }\@writefile{toc}{\contentsline {section}{\numberline {3.2}Box Down-sampling}{8}{section.3.2}\protected@file@percent }
\@writefile{lof}{\defcounter {refsection}{0}\relax }\@writefile{lof}{\contentsline {figure}{\numberline {3.1}{\ignorespaces Example for Box mipmapping. The middle texture shows the mipmapped version (at mip level 7) with colors being blended together. On the right the mipmapped texture can be seen mapped to the object.\relax }}{8}{figure.caption.10}\protected@file@percent }
\newlabel{fig:mushTexBoxMip7}{{3.1}{8}{Example for Box mipmapping. The middle texture shows the mipmapped version (at mip level 7) with colors being blended together. On the right the mipmapped texture can be seen mapped to the object.\relax }{figure.caption.10}{}}
\BKM@entry{id=22,dest={73656374696F6E2E332E33},srcline={27}}{4B616973657220446F776E2D73616D706C696E67}
\abx@aux@cite{UnityTextures}
\abx@aux@segm{0}{0}{UnityTextures}
\abx@aux@cite{SASPWEB2011}
\abx@aux@segm{0}{0}{SASPWEB2011}
\BKM@entry{id=23,dest={73656374696F6E2E332E34},srcline={71}}{4C616E637A6F7320446F776E73616D706C696E67}
\@writefile{toc}{\defcounter {refsection}{0}\relax }\@writefile{toc}{\contentsline {section}{\numberline {3.3}Kaiser Down-sampling}{9}{section.3.3}\protected@file@percent }
\newlabel{eq:kaiserWindowEquation}{{3.1}{9}{Kaiser Down-sampling}{equation.3.3.1}{}}
\newlabel{eq:kaiserIEquation}{{3.2}{9}{Kaiser Down-sampling}{equation.3.3.2}{}}
\@writefile{lof}{\defcounter {refsection}{0}\relax }\@writefile{lof}{\contentsline {figure}{\numberline {3.2}{\ignorespaces Box and Kaiser mipmapped textures (both at mip level 7). The object on the right has the Kaiser mipmapped texture projected onto it.\relax }}{9}{figure.caption.11}\protected@file@percent }
\newlabel{fig:mushTexKaiserMip7}{{3.2}{9}{Box and Kaiser mipmapped textures (both at mip level 7). The object on the right has the Kaiser mipmapped texture projected onto it.\relax }{figure.caption.11}{}}
\BKM@entry{id=24,dest={73756273656374696F6E2E332E342E31},srcline={74}}{4C616E637A6F732046696C746572}
\BKM@entry{id=25,dest={73656374696F6E2E332E35},srcline={105}}{4869676820506173732046696C74657220446F776E73616D706C696E67}
\@writefile{toc}{\defcounter {refsection}{0}\relax }\@writefile{toc}{\contentsline {section}{\numberline {3.4}Lanczos Downsampling}{10}{section.3.4}\protected@file@percent }
\@writefile{toc}{\defcounter {refsection}{0}\relax }\@writefile{toc}{\contentsline {subsection}{\numberline {3.4.1}Lanczos Filter}{10}{subsection.3.4.1}\protected@file@percent }
\newlabel{eq:lanczosEquation}{{3.3}{10}{Lanczos Filter}{equation.3.4.3}{}}
\@writefile{lof}{\defcounter {refsection}{0}\relax }\@writefile{lof}{\contentsline {figure}{\numberline {3.3}{\ignorespaces Kaiser and Lanczos mipmapped textures (both at mip level 7). The Lanczos texture has much sharper edges than the kaiser version, resulting in cleaner colors when mapped to the object (seen on the right).\relax }}{10}{figure.caption.12}\protected@file@percent }
\newlabel{fig:mushTexLanczosMip7}{{3.3}{10}{Kaiser and Lanczos mipmapped textures (both at mip level 7). The Lanczos texture has much sharper edges than the kaiser version, resulting in cleaner colors when mapped to the object (seen on the right).\relax }{figure.caption.12}{}}
\BKM@entry{id=26,dest={73656374696F6E2E332E36},srcline={111}}{5065726365707475616C20446F776E2D73616D706C696E67}
\abx@aux@cite{percepDownScale}
\abx@aux@segm{0}{0}{percepDownScale}
\abx@aux@cite{percepDownScale}
\abx@aux@segm{0}{0}{percepDownScale}
\abx@aux@cite{10.1145/2508363.2508370}
\abx@aux@segm{0}{0}{10.1145/2508363.2508370}
\abx@aux@cite{percepDownScale}
\abx@aux@segm{0}{0}{percepDownScale}
\abx@aux@cite{10.1145/2508363.2508370}
\abx@aux@segm{0}{0}{10.1145/2508363.2508370}
\@writefile{toc}{\defcounter {refsection}{0}\relax }\@writefile{toc}{\contentsline {section}{\numberline {3.5}High Pass Filter Downsampling}{11}{section.3.5}\protected@file@percent }
\@writefile{toc}{\defcounter {refsection}{0}\relax }\@writefile{toc}{\contentsline {section}{\numberline {3.6}Perceptual Down-sampling}{11}{section.3.6}\protected@file@percent }
\@writefile{lof}{\defcounter {refsection}{0}\relax }\@writefile{lof}{\contentsline {figure}{\numberline {3.4}{\ignorespaces An example for perceptual image down-scaling (bottom right). This image is from the original paper \cite {percepDownScale}. Left: ground truth, top-left: subsampling, top-right: bicubic filtering, bottom left: content-adaptive downscaling \cite {10.1145/2508363.2508370}, bottom-right: perceptual (theirs).\relax }}{11}{figure.caption.13}\protected@file@percent }
\newlabel{fig:perceptualExample}{{3.4}{11}{An example for perceptual image down-scaling (bottom right). This image is from the original paper \cite {percepDownScale}. Left: ground truth, top-left: subsampling, top-right: bicubic filtering, bottom left: content-adaptive downscaling \cite {10.1145/2508363.2508370}, bottom-right: perceptual (theirs).\relax }{figure.caption.13}{}}
\BKM@entry{id=27,dest={73756273656374696F6E2E332E362E31},srcline={122}}{5353494D}
\BKM@entry{id=28,dest={73756273656374696F6E2E332E362E32},srcline={159}}{446F776E73616D706C696E672050726F626C656D}
\@writefile{toc}{\defcounter {refsection}{0}\relax }\@writefile{toc}{\contentsline {subsection}{\numberline {3.6.1}SSIM}{12}{subsection.3.6.1}\protected@file@percent }
\newlabel{eq:SSIM}{{3.4}{12}{SSIM}{equation.3.6.4}{}}
\@writefile{lof}{\defcounter {refsection}{0}\relax }\@writefile{lof}{\contentsline {figure}{\numberline {3.5}{\ignorespaces Lanczos and Perceptually mipmapped textures (both at mip level 7). Image c has extremely sharp edges caused by the perceptual down-sampling algorithm. This leads to black discolorations when projected onto the object.\relax }}{12}{figure.caption.14}\protected@file@percent }
\newlabel{fig:mushTexPerceptualMip7}{{3.5}{12}{Lanczos and Perceptually mipmapped textures (both at mip level 7). Image c has extremely sharp edges caused by the perceptual down-sampling algorithm. This leads to black discolorations when projected onto the object.\relax }{figure.caption.14}{}}
\BKM@entry{id=29,dest={73756273656374696F6E2E332E362E33},srcline={179}}{446F776E73616D706C696E67}
\abx@aux@cite{percepDownScale}
\abx@aux@segm{0}{0}{percepDownScale}
\BKM@entry{id=30,dest={73656374696F6E2E332E37},srcline={199}}{4C6561726E6564205065726365707475616C20496D6167652050617463682053696D696C6172697479}
\abx@aux@cite{zhang2018unreasonable}
\abx@aux@segm{0}{0}{zhang2018unreasonable}
\abx@aux@cite{zhang2018unreasonable}
\abx@aux@segm{0}{0}{zhang2018unreasonable}
\@writefile{toc}{\defcounter {refsection}{0}\relax }\@writefile{toc}{\contentsline {subsection}{\numberline {3.6.2}Downsampling Problem}{13}{subsection.3.6.2}\protected@file@percent }
\newlabel{eq:perseptualDownsamplingProblem}{{3.5}{13}{Downsampling Problem}{equation.3.6.5}{}}
\newlabel{eq:perseptualDownsamplingProblemPatch}{{3.6}{13}{Downsampling Problem}{equation.3.6.6}{}}
\@writefile{toc}{\defcounter {refsection}{0}\relax }\@writefile{toc}{\contentsline {subsection}{\numberline {3.6.3}Downsampling}{13}{subsection.3.6.3}\protected@file@percent }
\newlabel{eq:perseptualDownsamplingFinal}{{3.7}{13}{Downsampling}{equation.3.6.7}{}}
\BKM@entry{id=31,dest={73656374696F6E2E332E38},srcline={218}}{506172616D65746572697A6174696F6E20417761726520446F776E73616D706C696E67}
\abx@aux@cite{10.1111/j.1467-8659.2012.03141.x}
\abx@aux@segm{0}{0}{10.1111/j.1467-8659.2012.03141.x}
\@writefile{toc}{\defcounter {refsection}{0}\relax }\@writefile{toc}{\contentsline {section}{\numberline {3.7}Learned Perceptual Image Patch Similarity}{14}{section.3.7}\protected@file@percent }
\@writefile{lof}{\defcounter {refsection}{0}\relax }\@writefile{lof}{\contentsline {figure}{\numberline {3.6}{\ignorespaces Perceptually and LPIPS mipmapped textures. Both are at mip level 7. Note the color shift in the LPIPS version (further details can be found in chapter \ref  {chapter:implementation}).\relax }}{14}{figure.caption.15}\protected@file@percent }
\newlabel{fig:mushTexLPIPSMip7}{{3.6}{14}{Perceptually and LPIPS mipmapped textures. Both are at mip level 7. Note the color shift in the LPIPS version (further details can be found in chapter \ref {chapter:implementation}).\relax }{figure.caption.15}{}}
\BKM@entry{id=32,dest={73756273656374696F6E2E332E382E31},srcline={221}}{506172616D65746572697A6174696F6E2041776172652046696C746572696E67}
\@writefile{toc}{\defcounter {refsection}{0}\relax }\@writefile{toc}{\contentsline {section}{\numberline {3.8}Parameterization Aware Downsampling}{15}{section.3.8}\protected@file@percent }
\@writefile{toc}{\defcounter {refsection}{0}\relax }\@writefile{toc}{\contentsline {subsection}{\numberline {3.8.1}Parameterization Aware Filtering}{15}{subsection.3.8.1}\protected@file@percent }
\newlabel{eq:generalCHMipMapParam}{{3.8}{15}{Parameterization Aware Filtering}{equation.3.8.8}{}}
\abx@aux@cite{10.1111/j.1467-8659.2012.03141.x}
\abx@aux@segm{0}{0}{10.1111/j.1467-8659.2012.03141.x}
\abx@aux@cite{10.1111/j.1467-8659.2012.03141.x}
\abx@aux@segm{0}{0}{10.1111/j.1467-8659.2012.03141.x}
\abx@aux@cite{10.1111/j.1467-8659.2012.03141.x}
\abx@aux@segm{0}{0}{10.1111/j.1467-8659.2012.03141.x}
\BKM@entry{id=33,dest={73756273656374696F6E2E332E382E32},srcline={297}}{496D706C656D656E746174696F6E}
\newlabel{eq:generalParam}{{3.9}{16}{Parameterization Aware Filtering}{equation.3.8.9}{}}
\newlabel{eq:imlementationParam}{{3.10}{16}{Parameterization Aware Filtering}{equation.3.8.10}{}}
\BKM@entry{id=34,dest={73656374696F6E2E332E39},srcline={302}}{56696577646570656E64616E7420446F776E73616D706C696E67}
\@writefile{lof}{\defcounter {refsection}{0}\relax }\@writefile{lof}{\contentsline {figure}{\numberline {3.7}{\ignorespaces This image which is from the original paper \cite {10.1111/j.1467-8659.2012.03141.x} on parameterization aware mipmapping shows the effects of parameterization aware down-sampling. The top row demonstrates the parametric distortion due to UV-Mapping with object space on the left and texture space on the right. The middle row shows trilinear mipmapping and the bottom one 16 times anisotropic mipmapping. In the middle and bottom row from left to right: normal box down-scaling, parameterization aware down-sampling, and parameterization aware constrained trilinear mipmaps.\relax }}{17}{figure.caption.16}\protected@file@percent }
\newlabel{fig:paramAwareDownExampleFromPaper}{{3.7}{17}{This image which is from the original paper \cite {10.1111/j.1467-8659.2012.03141.x} on parameterization aware mipmapping shows the effects of parameterization aware down-sampling. The top row demonstrates the parametric distortion due to UV-Mapping with object space on the left and texture space on the right. The middle row shows trilinear mipmapping and the bottom one 16 times anisotropic mipmapping. In the middle and bottom row from left to right: normal box down-scaling, parameterization aware down-sampling, and parameterization aware constrained trilinear mipmaps.\relax }{figure.caption.16}{}}
\@writefile{lof}{\defcounter {refsection}{0}\relax }\@writefile{lof}{\contentsline {figure}{\numberline {3.8}{\ignorespaces Lanczos and parametrization aware mipmapped textures (both at mip level 7). The upper white blob is missing in the right texture since it is not mapped to any surface and therefore gets assigned zero weights during down-sampling.\relax }}{17}{figure.caption.17}\protected@file@percent }
\newlabel{fig:mushTexParamAwareMip7}{{3.8}{17}{Lanczos and parametrization aware mipmapped textures (both at mip level 7). The upper white blob is missing in the right texture since it is not mapped to any surface and therefore gets assigned zero weights during down-sampling.\relax }{figure.caption.17}{}}
\@writefile{toc}{\defcounter {refsection}{0}\relax }\@writefile{toc}{\contentsline {subsection}{\numberline {3.8.2}Implementation}{17}{subsection.3.8.2}\protected@file@percent }
\BKM@entry{id=35,dest={73756273656374696F6E2E332E392E31},srcline={309}}{537068657265204D617070696E67}
\@writefile{toc}{\defcounter {refsection}{0}\relax }\@writefile{toc}{\contentsline {section}{\numberline {3.9}Viewdependant Downsampling}{18}{section.3.9}\protected@file@percent }
\@writefile{toc}{\defcounter {refsection}{0}\relax }\@writefile{toc}{\contentsline {subsection}{\numberline {3.9.1}Sphere Mapping}{18}{subsection.3.9.1}\protected@file@percent }
\@writefile{toc}{\defcounter {refsection}{0}\relax }\@writefile{toc}{\contentsline {subsubsection}{\nonumberline Texture Resolution}{18}{section*.19}\protected@file@percent }
\BKM@entry{id=36,dest={73756273656374696F6E2E332E392E32},srcline={332}}{426F78204D617070696E67}
\BKM@entry{id=37,dest={73756273656374696F6E2E332E392E33},srcline={341}}{4F76657268616E672050726F626C656D}
\@writefile{lof}{\defcounter {refsection}{0}\relax }\@writefile{lof}{\contentsline {figure}{\numberline {3.9}{\ignorespaces Example for view-dependent mipmapping with spherical projection.\relax }}{19}{figure.caption.18}\protected@file@percent }
\newlabel{fig:mushTexSphericalVDMip7}{{3.9}{19}{Example for view-dependent mipmapping with spherical projection.\relax }{figure.caption.18}{}}
\@writefile{toc}{\defcounter {refsection}{0}\relax }\@writefile{toc}{\contentsline {subsection}{\numberline {3.9.2}Box Mapping}{19}{subsection.3.9.2}\protected@file@percent }
\@writefile{toc}{\defcounter {refsection}{0}\relax }\@writefile{toc}{\contentsline {subsubsection}{\nonumberline Problems}{19}{section*.20}\protected@file@percent }
\@writefile{toc}{\defcounter {refsection}{0}\relax }\@writefile{toc}{\contentsline {subsection}{\numberline {3.9.3}Overhang Problem}{19}{subsection.3.9.3}\protected@file@percent }
\BKM@entry{id=38,dest={73756273656374696F6E2E332E392E34},srcline={382}}{536F6C7574696F6E73}
\@writefile{lof}{\defcounter {refsection}{0}\relax }\@writefile{lof}{\contentsline {figure}{\numberline {3.10}{\ignorespaces Example for box projection. The blue object is projected onto the black line. Due to the geometry the red part will be occluded and receive the same color as the green area.\relax }}{20}{figure.caption.21}\protected@file@percent }
\newlabel{fig:boxProjectionError}{{3.10}{20}{Example for box projection. The blue object is projected onto the black line. Due to the geometry the red part will be occluded and receive the same color as the green area.\relax }{figure.caption.21}{}}
\@writefile{lof}{\defcounter {refsection}{0}\relax }\@writefile{lof}{\contentsline {figure}{\numberline {3.11}{\ignorespaces Example for view-dependent mipmapping with box projection. The image in the right shows mip level 7. The grid on the left all six base textures (at mip level 0).\relax }}{20}{figure.caption.22}\protected@file@percent }
\newlabel{fig:mushTexBoxVDMip7}{{3.11}{20}{Example for view-dependent mipmapping with box projection. The image in the right shows mip level 7. The grid on the left all six base textures (at mip level 0).\relax }{figure.caption.22}{}}
\@writefile{lof}{\defcounter {refsection}{0}\relax }\@writefile{lof}{\contentsline {figure}{\numberline {3.12}{\ignorespaces An example for the projection errors produced by the view-dependent mipmapping techniques. The left image uses box projection, the right one spherical projection.\relax }}{21}{figure.caption.23}\protected@file@percent }
\newlabel{fig:boxProjErrorExample}{{3.12}{21}{An example for the projection errors produced by the view-dependent mipmapping techniques. The left image uses box projection, the right one spherical projection.\relax }{figure.caption.23}{}}
\@writefile{toc}{\defcounter {refsection}{0}\relax }\@writefile{toc}{\contentsline {subsection}{\numberline {3.9.4}Solutions}{21}{subsection.3.9.4}\protected@file@percent }
\BKM@entry{id=39,dest={636861707465722E34},srcline={4}}{496D706C656D656E746174696F6E}
\BKM@entry{id=40,dest={73656374696F6E2E342E31},srcline={15}}{4D69702047656E65726174696F6E2050726F63657373}
\BKM@entry{id=41,dest={73656374696F6E2E342E32},srcline={22}}{507974686F6E}
\@writefile{toc}{\defcounter {refsection}{0}\relax }\@writefile{toc}{\contentsline {chapter}{\numberline {4}Implementation}{22}{chapter.4}\protected@file@percent }
\@writefile{lof}{\defcounter {refsection}{0}\relax }\@writefile{lof}{\addvspace {10\p@ }}
\@writefile{lot}{\defcounter {refsection}{0}\relax }\@writefile{lot}{\addvspace {10\p@ }}
\@writefile{lol}{\defcounter {refsection}{0}\relax }\@writefile{lol}{\addvspace {10\p@ }}
\@writefile{loa}{\defcounter {refsection}{0}\relax }\@writefile{loa}{\addvspace {10\p@ }}
\newlabel{chapter:implementation}{{4}{22}{Implementation}{chapter.4}{}}
\@writefile{toc}{\defcounter {refsection}{0}\relax }\@writefile{toc}{\contentsline {section}{\numberline {4.1}Mip Generation Process}{22}{section.4.1}\protected@file@percent }
\@writefile{toc}{\defcounter {refsection}{0}\relax }\@writefile{toc}{\contentsline {section}{\numberline {4.2}Python}{22}{section.4.2}\protected@file@percent }
\BKM@entry{id=42,dest={73756273656374696F6E2E342E322E31},srcline={27}}{47656E6572616C2050726F626C656D73}
\BKM@entry{id=43,dest={73656374696F6E2E342E33},srcline={30}}{4C616E637A6F7320446F776E2D73616D706C696E67}
\BKM@entry{id=44,dest={73656374696F6E2E342E34},srcline={36}}{4869676820506173732046696C74657220446F776E2D73616D706C696E67}
\BKM@entry{id=45,dest={73656374696F6E2E342E35},srcline={39}}{5065726365707475616C20446F776E2D73616D706C696E67}
\abx@aux@cite{percepDownScale}
\abx@aux@segm{0}{0}{percepDownScale}
\abx@aux@cite{percepMatlabRepo}
\abx@aux@segm{0}{0}{percepMatlabRepo}
\@writefile{toc}{\defcounter {refsection}{0}\relax }\@writefile{toc}{\contentsline {subsection}{\numberline {4.2.1}General Problems}{23}{subsection.4.2.1}\protected@file@percent }
\@writefile{toc}{\defcounter {refsection}{0}\relax }\@writefile{toc}{\contentsline {section}{\numberline {4.3}Lanczos Down-sampling}{23}{section.4.3}\protected@file@percent }
\@writefile{toc}{\defcounter {refsection}{0}\relax }\@writefile{toc}{\contentsline {section}{\numberline {4.4}High Pass Filter Down-sampling}{23}{section.4.4}\protected@file@percent }
\@writefile{toc}{\defcounter {refsection}{0}\relax }\@writefile{toc}{\contentsline {section}{\numberline {4.5}Perceptual Down-sampling}{23}{section.4.5}\protected@file@percent }
\BKM@entry{id=46,dest={73756273656374696F6E2E342E352E31},srcline={57}}{4C696E65617220416C6765627261}
\abx@aux@cite{eigenMath}
\abx@aux@segm{0}{0}{eigenMath}
\BKM@entry{id=47,dest={73756273656374696F6E2E342E352E32},srcline={61}}{5065726365707475616C2050736575646F20436F6465}
\abx@aux@cite{percepDownScale}
\abx@aux@segm{0}{0}{percepDownScale}
\@writefile{lof}{\defcounter {refsection}{0}\relax }\@writefile{lof}{\contentsline {figure}{\numberline {4.1}{\ignorespaces This comparison demonstrates the color errors introduced by various techniques. Box down-sampling mixes colors together resulting in darker areas on the face and arms. Perceptual creates black discolorations. Lanczos keeps the colors mostly intact but still smears some of them together. LPIPS shows a severe red shift. Parametrization aware down-sampling generates the best results of all show methods. The ground truth has no mipmapping, all other images are on mip level seven.\relax }}{24}{figure.caption.24}\protected@file@percent }
\newlabel{fig:browserMip5Comparison}{{4.1}{24}{This comparison demonstrates the color errors introduced by various techniques. Box down-sampling mixes colors together resulting in darker areas on the face and arms. Perceptual creates black discolorations. Lanczos keeps the colors mostly intact but still smears some of them together. LPIPS shows a severe red shift. Parametrization aware down-sampling generates the best results of all show methods. The ground truth has no mipmapping, all other images are on mip level seven.\relax }{figure.caption.24}{}}
\@writefile{toc}{\defcounter {refsection}{0}\relax }\@writefile{toc}{\contentsline {subsection}{\numberline {4.5.1}Linear Algebra}{24}{subsection.4.5.1}\protected@file@percent }
\@writefile{toc}{\defcounter {refsection}{0}\relax }\@writefile{toc}{\contentsline {subsection}{\numberline {4.5.2}Perceptual Pseudo Code}{24}{subsection.4.5.2}\protected@file@percent }
\BKM@entry{id=48,dest={73656374696F6E2E342E36},srcline={93}}{4C50495053}
\abx@aux@cite{zhang2018unreasonable}
\abx@aux@segm{0}{0}{zhang2018unreasonable}
\BKM@entry{id=49,dest={73756273656374696F6E2E342E362E31},srcline={98}}{4D6970204C6576656C2047656E65726174696F6E}
\@writefile{loa}{\defcounter {refsection}{0}\relax }\@writefile{loa}{\contentsline {algorithm}{\numberline {1}{\ignorespaces Perceptual Down-scaling\relax }}{25}{algorithm.1}\protected@file@percent }
\@writefile{loa}{\defcounter {refsection}{0}\relax }\@writefile{loa}{\contentsline {algorithm}{\numberline {2}{\ignorespaces   Pseudo-code for the perceptual down-sampling algorithm \ref  {perceptualPseudoCode}.\relax }}{25}{algorithm.2}\protected@file@percent }
\newlabel{perceptualPseudoCode}{{2}{25}{\\ Pseudo-code for the perceptual down-sampling algorithm \ref {perceptualPseudoCode}.\relax }{algorithm.2}{}}
\@writefile{toc}{\defcounter {refsection}{0}\relax }\@writefile{toc}{\contentsline {section}{\numberline {4.6}LPIPS}{25}{section.4.6}\protected@file@percent }
\BKM@entry{id=50,dest={73756273656374696F6E2E342E362E32},srcline={101}}{50726F626C656D73}
\BKM@entry{id=51,dest={73656374696F6E2E342E37},srcline={104}}{506172616D65746572697A6174696F6E20417761726520446F776E2D73616D706C696E67}
\BKM@entry{id=52,dest={73756273656374696F6E2E342E372E31},srcline={107}}{546578656C20436F766572616765}
\BKM@entry{id=53,dest={73756273656374696F6E2E342E372E32},srcline={111}}{446F776E2D73616D706C696E67}
\@writefile{toc}{\defcounter {refsection}{0}\relax }\@writefile{toc}{\contentsline {subsection}{\numberline {4.6.1}Mip Level Generation}{26}{subsection.4.6.1}\protected@file@percent }
\@writefile{toc}{\defcounter {refsection}{0}\relax }\@writefile{toc}{\contentsline {subsection}{\numberline {4.6.2}Problems}{26}{subsection.4.6.2}\protected@file@percent }
\@writefile{toc}{\defcounter {refsection}{0}\relax }\@writefile{toc}{\contentsline {section}{\numberline {4.7}Parameterization Aware Down-sampling}{26}{section.4.7}\protected@file@percent }
\newlabel{ParamAwareImpl}{{4.7}{26}{Parameterization Aware Down-sampling}{section.4.7}{}}
\@writefile{toc}{\defcounter {refsection}{0}\relax }\@writefile{toc}{\contentsline {subsection}{\numberline {4.7.1}Texel Coverage}{26}{subsection.4.7.1}\protected@file@percent }
\BKM@entry{id=54,dest={73756273656374696F6E2E342E372E33},srcline={114}}{53686F7274636F6D696E6773}
\BKM@entry{id=55,dest={73656374696F6E2E342E38},srcline={117}}{566965772D446570656E64656E74204D69706D617070696E67}
\BKM@entry{id=56,dest={73756273656374696F6E2E342E382E31},srcline={124}}{537068657265204D617070696E67}
\@writefile{toc}{\defcounter {refsection}{0}\relax }\@writefile{toc}{\contentsline {subsection}{\numberline {4.7.2}Down-sampling}{27}{subsection.4.7.2}\protected@file@percent }
\@writefile{toc}{\defcounter {refsection}{0}\relax }\@writefile{toc}{\contentsline {subsection}{\numberline {4.7.3}Shortcomings}{27}{subsection.4.7.3}\protected@file@percent }
\@writefile{toc}{\defcounter {refsection}{0}\relax }\@writefile{toc}{\contentsline {section}{\numberline {4.8}View-Dependent Mipmapping}{27}{section.4.8}\protected@file@percent }
\@writefile{toc}{\defcounter {refsection}{0}\relax }\@writefile{toc}{\contentsline {subsection}{\numberline {4.8.1}Sphere Mapping}{27}{subsection.4.8.1}\protected@file@percent }
\newlabel{eq:cartesianToSpherical}{{4.1}{28}{Sphere Mapping}{equation.4.8.1}{}}
\newlabel{eq:sphericalToCartesian}{{4.2}{28}{Sphere Mapping}{equation.4.8.2}{}}
\@writefile{toc}{\defcounter {refsection}{0}\relax }\@writefile{toc}{\contentsline {subsubsection}{\nonumberline Texture Generation}{28}{section*.25}\protected@file@percent }
\BKM@entry{id=57,dest={73756273656374696F6E2E342E382E32},srcline={170}}{426F78204D617070696E67}
\@writefile{toc}{\defcounter {refsection}{0}\relax }\@writefile{toc}{\contentsline {subsubsection}{\nonumberline Final Sampling}{29}{section*.26}\protected@file@percent }
\@writefile{toc}{\defcounter {refsection}{0}\relax }\@writefile{toc}{\contentsline {subsection}{\numberline {4.8.2}Box Mapping}{29}{subsection.4.8.2}\protected@file@percent }
\@writefile{toc}{\defcounter {refsection}{0}\relax }\@writefile{toc}{\contentsline {subsubsection}{\nonumberline Preprocessing}{29}{section*.27}\protected@file@percent }
\@writefile{toc}{\defcounter {refsection}{0}\relax }\@writefile{toc}{\contentsline {subsubsection}{\nonumberline Different Mipmapping Implementations}{29}{section*.28}\protected@file@percent }
\newlabel{sec:BoxMapDownSample}{{4.8.2}{29}{Different Mipmapping Implementations}{section*.28}{}}
\BKM@entry{id=58,dest={73656374696F6E2E342E39},srcline={191}}{536861646572}
\BKM@entry{id=59,dest={73756273656374696F6E2E342E392E31},srcline={195}}{5669657720446570656E64656E7420536861646572}
\@writefile{toc}{\defcounter {refsection}{0}\relax }\@writefile{toc}{\contentsline {subsubsection}{\nonumberline Final Sampling}{30}{section*.29}\protected@file@percent }
\@writefile{toc}{\defcounter {refsection}{0}\relax }\@writefile{toc}{\contentsline {section}{\numberline {4.9}Shader}{30}{section.4.9}\protected@file@percent }
\@writefile{toc}{\defcounter {refsection}{0}\relax }\@writefile{toc}{\contentsline {subsection}{\numberline {4.9.1}View Dependent Shader}{30}{subsection.4.9.1}\protected@file@percent }
\@writefile{toc}{\defcounter {refsection}{0}\relax }\@writefile{toc}{\contentsline {subsubsection}{\nonumberline Sphere Mapping}{30}{section*.30}\protected@file@percent }
\@writefile{lof}{\defcounter {refsection}{0}\relax }\@writefile{lof}{\contentsline {figure}{\numberline {4.2}{\ignorespaces Example for texture selection used in box projection. The orange dot represents a shader fragment, the black box the surrounding textures, and the arrow the surface normal. The texture the arrow points towards is chosen.\relax }}{31}{figure.caption.32}\protected@file@percent }
\newlabel{fig:fragmentBoxMapping}{{4.2}{31}{Example for texture selection used in box projection. The orange dot represents a shader fragment, the black box the surrounding textures, and the arrow the surface normal. The texture the arrow points towards is chosen.\relax }{figure.caption.32}{}}
\@writefile{toc}{\defcounter {refsection}{0}\relax }\@writefile{toc}{\contentsline {subsubsection}{\nonumberline Image Mapping}{31}{section*.31}\protected@file@percent }
\BKM@entry{id=60,dest={636861707465722E35},srcline={4}}{526573756C7473}
\BKM@entry{id=61,dest={73656374696F6E2E352E31},srcline={8}}{436F6D70617269736F6E204D6574686F646F6C6F6779}
\BKM@entry{id=62,dest={73756273656374696F6E2E352E312E31},srcline={13}}{54657374204F626A65637473}
\BKM@entry{id=63,dest={73756273656374696F6E2E352E312E32},srcline={33}}{496D6167652047656E65726174696F6E}
\@writefile{toc}{\defcounter {refsection}{0}\relax }\@writefile{toc}{\contentsline {chapter}{\numberline {5}Results}{32}{chapter.5}\protected@file@percent }
\@writefile{lof}{\defcounter {refsection}{0}\relax }\@writefile{lof}{\addvspace {10\p@ }}
\@writefile{lot}{\defcounter {refsection}{0}\relax }\@writefile{lot}{\addvspace {10\p@ }}
\@writefile{lol}{\defcounter {refsection}{0}\relax }\@writefile{lol}{\addvspace {10\p@ }}
\@writefile{loa}{\defcounter {refsection}{0}\relax }\@writefile{loa}{\addvspace {10\p@ }}
\newlabel{chapter:results}{{5}{32}{Results}{chapter.5}{}}
\@writefile{toc}{\defcounter {refsection}{0}\relax }\@writefile{toc}{\contentsline {section}{\numberline {5.1}Comparison Methodology}{32}{section.5.1}\protected@file@percent }
\@writefile{toc}{\defcounter {refsection}{0}\relax }\@writefile{toc}{\contentsline {subsection}{\numberline {5.1.1}Test Objects}{32}{subsection.5.1.1}\protected@file@percent }
\BKM@entry{id=64,dest={73756273656374696F6E2E352E312E33},srcline={43}}{436F6D70617269736F6E20546563686E69717565}
\@writefile{lof}{\defcounter {refsection}{0}\relax }\@writefile{lof}{\contentsline {figure}{\numberline {5.1}{\ignorespaces The three test objects. On the left is Bowser, in the middle the mushroom, and on the right the Blast bot.\relax }}{33}{figure.caption.33}\protected@file@percent }
\newlabel{fig:testObjects}{{5.1}{33}{The three test objects. On the left is Bowser, in the middle the mushroom, and on the right the Blast bot.\relax }{figure.caption.33}{}}
\@writefile{toc}{\defcounter {refsection}{0}\relax }\@writefile{toc}{\contentsline {subsection}{\numberline {5.1.2}Image Generation}{33}{subsection.5.1.2}\protected@file@percent }
\@writefile{toc}{\defcounter {refsection}{0}\relax }\@writefile{toc}{\contentsline {subsubsection}{\nonumberline Methodology Issues}{33}{section*.34}\protected@file@percent }
\BKM@entry{id=65,dest={73656374696F6E2E352E32},srcline={48}}{47656E6572616C2046696E64696E6773}
\@writefile{toc}{\defcounter {refsection}{0}\relax }\@writefile{toc}{\contentsline {subsection}{\numberline {5.1.3}Comparison Technique}{34}{subsection.5.1.3}\protected@file@percent }
\@writefile{toc}{\defcounter {refsection}{0}\relax }\@writefile{toc}{\contentsline {section}{\numberline {5.2}General Findings}{34}{section.5.2}\protected@file@percent }
\BKM@entry{id=66,dest={73656374696F6E2E352E33},srcline={94}}{506572666F726D616E636520496D7061637473}
\@writefile{lof}{\defcounter {refsection}{0}\relax }\@writefile{lof}{\contentsline {figure}{\numberline {5.2}{\ignorespaces Comparison results using the LPIPS metric of Bowser from the top left. Note that that because box and kaiser down-sampling are valued almost identical, the box line is hidden by the one for kaiser filtering.\relax }}{35}{figure.caption.35}\protected@file@percent }
\newlabel{fig:browserLPIPSFrontTop}{{5.2}{35}{Comparison results using the LPIPS metric of Bowser from the top left. Note that that because box and kaiser down-sampling are valued almost identical, the box line is hidden by the one for kaiser filtering.\relax }{figure.caption.35}{}}
\BKM@entry{id=67,dest={73756273656374696F6E2E352E332E31},srcline={97}}{4D656D6F7279205573616765}
\@writefile{lof}{\defcounter {refsection}{0}\relax }\@writefile{lof}{\contentsline {figure}{\numberline {5.3}{\ignorespaces Comparison results using the SSIM metric of Bowser from the top left. Note that because Box and Kaiser down-sampling are rated almost identical the Box line is hidden by the one for Kaiser filtering.\relax }}{36}{figure.caption.36}\protected@file@percent }
\newlabel{fig:browserSSIMFrontTop}{{5.3}{36}{Comparison results using the SSIM metric of Bowser from the top left. Note that because Box and Kaiser down-sampling are rated almost identical the Box line is hidden by the one for Kaiser filtering.\relax }{figure.caption.36}{}}
\@writefile{toc}{\defcounter {refsection}{0}\relax }\@writefile{toc}{\contentsline {section}{\numberline {5.3}Performance Impacts}{36}{section.5.3}\protected@file@percent }
\@writefile{toc}{\defcounter {refsection}{0}\relax }\@writefile{toc}{\contentsline {subsection}{\numberline {5.3.1}Memory Usage}{36}{subsection.5.3.1}\protected@file@percent }
\BKM@entry{id=68,dest={73656374696F6E2E352E34},srcline={102}}{566965772D646570656E64656E74204D6574686F6473}
\BKM@entry{id=69,dest={73656374696F6E2E352E35},srcline={105}}{50726F6A656374696F6E204572726F7273}
\@writefile{lof}{\defcounter {refsection}{0}\relax }\@writefile{lof}{\contentsline {figure}{\numberline {5.4}{\ignorespaces Comparison results using the LPIPS metric of the BlastBot from the top left. Note that because Box and Kaiser down-sampling are rated almost identical the Box line is hidden by the one for Kaiser filtering.\relax }}{37}{figure.caption.37}\protected@file@percent }
\newlabel{fig:blastBotLPIPSFrontTopLeft}{{5.4}{37}{Comparison results using the LPIPS metric of the BlastBot from the top left. Note that because Box and Kaiser down-sampling are rated almost identical the Box line is hidden by the one for Kaiser filtering.\relax }{figure.caption.37}{}}
\@writefile{toc}{\defcounter {refsection}{0}\relax }\@writefile{toc}{\contentsline {section}{\numberline {5.4}View-dependent Methods}{37}{section.5.4}\protected@file@percent }
\@writefile{lof}{\defcounter {refsection}{0}\relax }\@writefile{lof}{\contentsline {figure}{\numberline {5.5}{\ignorespaces Comparison results using the LPIPS metric of the mushroom from the top left. Note that because Box and Kaiser down-sampling are rated almost identical the Box line is hidden by the one for Kaiser filtering.\relax }}{38}{figure.caption.38}\protected@file@percent }
\newlabel{fig:mushroomLPIPSFrontTopLeft}{{5.5}{38}{Comparison results using the LPIPS metric of the mushroom from the top left. Note that because Box and Kaiser down-sampling are rated almost identical the Box line is hidden by the one for Kaiser filtering.\relax }{figure.caption.38}{}}
\@writefile{toc}{\defcounter {refsection}{0}\relax }\@writefile{toc}{\contentsline {section}{\numberline {5.5}Projection Errors}{38}{section.5.5}\protected@file@percent }
\BKM@entry{id=70,dest={73756273656374696F6E2E352E352E31},srcline={116}}{446F776E2D73616D706C696E6720546563686E697175657320666F7220426F782050726F6A656374696F6E}
\BKM@entry{id=71,dest={73656374696F6E2E352E36},srcline={128}}{506F73697469766520526573756C7473}
\@writefile{toc}{\defcounter {refsection}{0}\relax }\@writefile{toc}{\contentsline {subsection}{\numberline {5.5.1}Down-sampling Techniques for Box Projection}{39}{subsection.5.5.1}\protected@file@percent }
\@writefile{toc}{\defcounter {refsection}{0}\relax }\@writefile{toc}{\contentsline {section}{\numberline {5.6}Positive Results}{39}{section.5.6}\protected@file@percent }
\newlabel{section:positiveResults}{{5.6}{39}{Positive Results}{section.5.6}{}}
\@writefile{lof}{\defcounter {refsection}{0}\relax }\@writefile{lof}{\contentsline {figure}{\numberline {5.6}{\ignorespaces Comparison results of the different down-sampling techniques for view-dependent box projection using the LPIPS metric of Bowser from the top left.\relax }}{40}{figure.caption.39}\protected@file@percent }
\newlabel{fig:browserLPIPSFrontTopLeftViewDep}{{5.6}{40}{Comparison results of the different down-sampling techniques for view-dependent box projection using the LPIPS metric of Bowser from the top left.\relax }{figure.caption.39}{}}
\@writefile{lot}{\defcounter {refsection}{0}\relax }\@writefile{lot}{\contentsline {table}{\numberline {5.1}{\ignorespaces SSIM metric results for Bowser from the top left front (the same as in figure \ref  {fig:browserLPIPSFrontTop}). Box and Kaiser down-sampling only differ in the eighth decimal place.\relax }}{40}{table.caption.43}\protected@file@percent }
\newlabel{table:SSIMData}{{5.1}{40}{SSIM metric results for Bowser from the top left front (the same as in figure \ref {fig:browserLPIPSFrontTop}). Box and Kaiser down-sampling only differ in the eighth decimal place.\relax }{table.caption.43}{}}
\@writefile{lof}{\defcounter {refsection}{0}\relax }\@writefile{lof}{\contentsline {figure}{\numberline {5.7}{\ignorespaces Box and Kaiser mipmapping on mip level six. Only slight differences are visible. In this example SSIM gives Box a score of $0.11403335$ and Kaiser of $0.11403336$. LPIPS rates Box with $0.804394$ and Kaiser with $0.804397$. Differences can be seen at the tip of the cap, at its border, or on/ around the big white spot on the right side.\relax }}{41}{figure.caption.40}\protected@file@percent }
\newlabel{fig:mushroomMip6BoxKaiser}{{5.7}{41}{Box and Kaiser mipmapping on mip level six. Only slight differences are visible. In this example SSIM gives Box a score of $0.11403335$ and Kaiser of $0.11403336$. LPIPS rates Box with $0.804394$ and Kaiser with $0.804397$. Differences can be seen at the tip of the cap, at its border, or on/ around the big white spot on the right side.\relax }{figure.caption.40}{}}
\@writefile{lot}{\defcounter {refsection}{0}\relax }\@writefile{lot}{\contentsline {table}{\numberline {5.2}{\ignorespaces LPIPS metric results for Bowser from the top left front (the same as in figure \ref  {fig:browserLPIPSFrontTop}). Box and Kaiser down-sampling only differ in the eighth decimal place.\relax }}{41}{table.caption.44}\protected@file@percent }
\newlabel{table:LPIPSData}{{5.2}{41}{LPIPS metric results for Bowser from the top left front (the same as in figure \ref {fig:browserLPIPSFrontTop}). Box and Kaiser down-sampling only differ in the eighth decimal place.\relax }{table.caption.44}{}}
\@writefile{lof}{\defcounter {refsection}{0}\relax }\@writefile{lof}{\contentsline {figure}{\numberline {5.8}{\ignorespaces Results of the different techniques on mip level 6. Image d (Perceptual) clearly shows severe black discolorations. Version g (LPIPS) shows a red-shift of the entire texture. In h (Viewdependent box) mapping issues can be seen on the feet. Overall Lanczos and Parametrization aware come closest to the ground truth. \hspace  {\textwidth } Differences can be seen around the spikes on the shell and the bands around the arms.\relax }}{42}{figure.caption.41}\protected@file@percent }
\newlabel{fig:browserMip6Comparison}{{5.8}{42}{Results of the different techniques on mip level 6. Image d (Perceptual) clearly shows severe black discolorations. Version g (LPIPS) shows a red-shift of the entire texture. In h (Viewdependent box) mapping issues can be seen on the feet. Overall Lanczos and Parametrization aware come closest to the ground truth.\\\hspace {\textwidth } Differences can be seen around the spikes on the shell and the bands around the arms.\relax }{figure.caption.41}{}}
\@writefile{lof}{\defcounter {refsection}{0}\relax }\@writefile{lof}{\contentsline {figure}{\numberline {5.9}{\ignorespaces The base texture for Bowser, Mushroom, and BlastBot. The individual uv-islands are separated by black areas.\relax }}{43}{figure.caption.42}\protected@file@percent }
\newlabel{fig:browserTextureBase}{{5.9}{43}{The base texture for Bowser, Mushroom, and BlastBot. The individual uv-islands are separated by black areas.\relax }{figure.caption.42}{}}
\@writefile{lof}{\defcounter {refsection}{0}\relax }\@writefile{lof}{\contentsline {figure}{\numberline {5.10}{\ignorespaces All three images show a grid of mushrooms from the top. The left image has mipmapping disabled. The middle image uses box mipmapping. The one on the right uses view-dependent box projection. Both images with mipmapping show mip level 9. In this example the color degradation caused by a simple box filter is clearly visible in the middle image, whereas the view-dependent version reproduces the original colors almost perfectly.\relax }}{43}{figure.caption.45}\protected@file@percent }
\newlabel{fig:mushroomField}{{5.10}{43}{All three images show a grid of mushrooms from the top. The left image has mipmapping disabled. The middle image uses box mipmapping. The one on the right uses view-dependent box projection. Both images with mipmapping show mip level 9. In this example the color degradation caused by a simple box filter is clearly visible in the middle image, whereas the view-dependent version reproduces the original colors almost perfectly.\relax }{figure.caption.45}{}}
\@writefile{lof}{\defcounter {refsection}{0}\relax }\@writefile{lof}{\contentsline {figure}{\numberline {5.11}{\ignorespaces Both images show a herd of wild Bowsers. The left image uses unity standard box mipmaps, the right uses view-dependent box projection. Notice how the right version keeps the green on Bowsers back much more intact than the left one. Both versions use the same lighting setup.\relax }}{44}{figure.caption.46}\protected@file@percent }
\newlabel{fig:browserHerd}{{5.11}{44}{Both images show a herd of wild Bowsers. The left image uses unity standard box mipmaps, the right uses view-dependent box projection. Notice how the right version keeps the green on Bowsers back much more intact than the left one. Both versions use the same lighting setup.\relax }{figure.caption.46}{}}
\BKM@entry{id=72,dest={636861707465722E36},srcline={4}}{4C696D69746174696F6E7320616E64204675727468657220496D70726F76656D656E7473}
\BKM@entry{id=73,dest={73656374696F6E2E362E31},srcline={6}}{50726F6A656374696F6E204572726F7273}
\BKM@entry{id=74,dest={73656374696F6E2E362E32},srcline={11}}{4D65736820446973746F7274696F6E73}
\BKM@entry{id=75,dest={73656374696F6E2E362E33},srcline={16}}{5573616765206F66204F7468657220446F776E2D73616D706C696E6720546563686E6971756573}
\@writefile{toc}{\defcounter {refsection}{0}\relax }\@writefile{toc}{\contentsline {chapter}{\numberline {6}Limitations and Further Improvements}{45}{chapter.6}\protected@file@percent }
\@writefile{lof}{\defcounter {refsection}{0}\relax }\@writefile{lof}{\addvspace {10\p@ }}
\@writefile{lot}{\defcounter {refsection}{0}\relax }\@writefile{lot}{\addvspace {10\p@ }}
\@writefile{lol}{\defcounter {refsection}{0}\relax }\@writefile{lol}{\addvspace {10\p@ }}
\@writefile{loa}{\defcounter {refsection}{0}\relax }\@writefile{loa}{\addvspace {10\p@ }}
\newlabel{chapter:furtherImprovements}{{6}{45}{Limitations and Further Improvements}{chapter.6}{}}
\@writefile{toc}{\defcounter {refsection}{0}\relax }\@writefile{toc}{\contentsline {section}{\numberline {6.1}Projection Errors}{45}{section.6.1}\protected@file@percent }
\@writefile{toc}{\defcounter {refsection}{0}\relax }\@writefile{toc}{\contentsline {section}{\numberline {6.2}Mesh Distortions}{45}{section.6.2}\protected@file@percent }
\BKM@entry{id=76,dest={73656374696F6E2E362E34},srcline={20}}{55562D70726F6A656374696F6E204368616E676573}
\BKM@entry{id=77,dest={73656374696F6E2E362E35},srcline={26}}{537065636966696320436F6C6F727320666F7220446972656374696F6E73}
\BKM@entry{id=78,dest={73656374696F6E2E362E36},srcline={29}}{4C5049507320496D70726F76656D656E7473}
\@writefile{toc}{\defcounter {refsection}{0}\relax }\@writefile{toc}{\contentsline {section}{\numberline {6.3}Usage of Other Down-sampling Techniques}{46}{section.6.3}\protected@file@percent }
\@writefile{toc}{\defcounter {refsection}{0}\relax }\@writefile{toc}{\contentsline {section}{\numberline {6.4}UV-projection Changes}{46}{section.6.4}\protected@file@percent }
\@writefile{toc}{\defcounter {refsection}{0}\relax }\@writefile{toc}{\contentsline {section}{\numberline {6.5}Specific Colors for Directions}{46}{section.6.5}\protected@file@percent }
\@writefile{toc}{\defcounter {refsection}{0}\relax }\@writefile{toc}{\contentsline {section}{\numberline {6.6}LPIPs Improvements}{46}{section.6.6}\protected@file@percent }
\BKM@entry{id=79,dest={636861707465722E37},srcline={4}}{436F6E636C7573696F6E}
\@writefile{toc}{\defcounter {refsection}{0}\relax }\@writefile{toc}{\contentsline {chapter}{\numberline {7}Conclusion}{47}{chapter.7}\protected@file@percent }
\@writefile{lof}{\defcounter {refsection}{0}\relax }\@writefile{lof}{\addvspace {10\p@ }}
\@writefile{lot}{\defcounter {refsection}{0}\relax }\@writefile{lot}{\addvspace {10\p@ }}
\@writefile{lol}{\defcounter {refsection}{0}\relax }\@writefile{lol}{\addvspace {10\p@ }}
\@writefile{loa}{\defcounter {refsection}{0}\relax }\@writefile{loa}{\addvspace {10\p@ }}
\newlabel{chapter:conclusion}{{7}{47}{Conclusion}{chapter.7}{}}
\BKM@entry{id=80,dest={636861707465722A2E3437},srcline={53}}{4C697374206F662046696775726573}
\@writefile{toc}{\defcounter {refsection}{0}\relax }\@writefile{toc}{\contentsline {chapter}{\nonumberline List of Figures}{48}{chapter*.47}\protected@file@percent }
\BKM@entry{id=81,dest={636861707465722A2E3438},srcline={54}}{4C697374206F66205461626C6573}
\@writefile{toc}{\defcounter {refsection}{0}\relax }\@writefile{toc}{\contentsline {chapter}{\nonumberline List of Tables}{52}{chapter*.48}\protected@file@percent }
\BKM@entry{id=82,dest={636861707465722A2E3439},srcline={56}}{4269626C696F677261706879}
\@writefile{toc}{\defcounter {refsection}{0}\relax }\@writefile{toc}{\contentsline {chapter}{\nonumberline Bibliography}{53}{chapter*.49}\protected@file@percent }
\@writefile{lof}{\defcounter {refsection}{0}\relax }\@writefile{lof}{\addvspace {10\p@ }}
\@writefile{lot}{\defcounter {refsection}{0}\relax }\@writefile{lot}{\addvspace {10\p@ }}
\@writefile{lol}{\defcounter {refsection}{0}\relax }\@writefile{lol}{\addvspace {10\p@ }}
\@writefile{loa}{\defcounter {refsection}{0}\relax }\@writefile{loa}{\addvspace {10\p@ }}
\abx@aux@refcontextdefaultsdone
\abx@aux@defaultrefcontext{0}{1260775}{anyt/global//global/global}
\abx@aux@defaultrefcontext{0}{Sol11}{anyt/global//global/global}
\abx@aux@defaultrefcontext{0}{FeaturesInHumanVision}{anyt/global//global/global}
\abx@aux@defaultrefcontext{0}{mipAliasingExampleImage}{anyt/global//global/global}
\abx@aux@defaultrefcontext{0}{eigenMath}{anyt/global//global/global}
\abx@aux@defaultrefcontext{0}{polygonLOD}{anyt/global//global/global}
\abx@aux@defaultrefcontext{0}{WoosuckHong}{anyt/global//global/global}
\abx@aux@defaultrefcontext{0}{mipExampleImage}{anyt/global//global/global}
\abx@aux@defaultrefcontext{0}{anisotropicExampleImage}{anyt/global//global/global}
\abx@aux@defaultrefcontext{0}{Hüttner}{anyt/global//global/global}
\abx@aux@defaultrefcontext{0}{10.5555/2849517.2849543}{anyt/global//global/global}
\abx@aux@defaultrefcontext{0}{10.1145/2508363.2508370}{anyt/global//global/global}
\abx@aux@defaultrefcontext{0}{10.1145/2010324.1964935}{anyt/global//global/global}
\abx@aux@defaultrefcontext{0}{10.1111/j.1467-8659.2012.03141.x}{anyt/global//global/global}
\abx@aux@defaultrefcontext{0}{percepDownScale}{anyt/global//global/global}
\abx@aux@defaultrefcontext{0}{10.1145/383507.383532}{anyt/global//global/global}
\abx@aux@defaultrefcontext{0}{percepMatlabRepo}{anyt/global//global/global}
\abx@aux@defaultrefcontext{0}{SASPWEB2011}{anyt/global//global/global}
\abx@aux@defaultrefcontext{0}{UnityTextures}{anyt/global//global/global}
\abx@aux@defaultrefcontext{0}{4775883}{anyt/global//global/global}
\abx@aux@defaultrefcontext{0}{10.1145/964967.801126}{anyt/global//global/global}
\abx@aux@defaultrefcontext{0}{5635337}{anyt/global//global/global}
\abx@aux@defaultrefcontext{0}{1292216}{anyt/global//global/global}
\abx@aux@defaultrefcontext{0}{doi:10.1111/cgf.13221}{anyt/global//global/global}
\abx@aux@defaultrefcontext{0}{5705575}{anyt/global//global/global}
\abx@aux@defaultrefcontext{0}{6467150}{anyt/global//global/global}
\abx@aux@defaultrefcontext{0}{zhang2018unreasonable}{anyt/global//global/global}
\abx@aux@defaultrefcontext{0}{SSIMOrig}{anyt/global//global/global}
\global\@namedef{scr@dte@chapter@lastmaxnumwidth}{9.85492pt}
\global\@namedef{scr@dte@section@lastmaxnumwidth}{18.0674pt}
\global\@namedef{scr@dte@subsection@lastmaxnumwidth}{26.27988pt}
\global\@namedef{scr@dte@table@lastmaxnumwidth}{18.0674pt}
\global\@namedef{scr@dte@figure@lastmaxnumwidth}{23.54239pt}
